{
    "cron": {
        "send_mails": {
            "domain_name": "127.0.0.1"
        }
    },
    "secrets": {
        "database_name": "codesubsys",
        "database_username": "codesubsys",
        "database_password": "unifier-cursor-jaundice-purveyor-crested-remark-festive-darn-unbraided",
        "email_account": "code.submission.project@gmail.com",
        "email_password": "code_sub",
        "email_smtp_url": "smtp.gmail.com",
        "email_port": 465,
        "email_use_ssl": 1,
        "cookie_secret": "detract-crunching-bonfire-oak-culminate-mulberry-proactive-quarters",
        "ssl_password": "codesubsys"
    }
}