<?xml version="1.0" encoding="UTF-8" standalone="no"?>
<!-- Created with Inkscape (http://www.inkscape.org/) -->

<svg
   xmlns:dc="http://purl.org/dc/elements/1.1/"
   xmlns:cc="http://creativecommons.org/ns#"
   xmlns:rdf="http://www.w3.org/1999/02/22-rdf-syntax-ns#"
   xmlns:svg="http://www.w3.org/2000/svg"
   xmlns="http://www.w3.org/2000/svg"
   xmlns:sodipodi="http://sodipodi.sourceforge.net/DTD/sodipodi-0.dtd"
   xmlns:inkscape="http://www.inkscape.org/namespaces/inkscape"
   width="1600"
   height="1335"
   viewBox="0 0 423.33332 353.21876"
   version="1.1"
   id="svg4671"
   inkscape:version="0.92.2 2405546, 2018-03-11"
   sodipodi:docname="course.svg">
  <defs
     id="defs4665" />
  <sodipodi:namedview
     id="base"
     pagecolor="#ffffff"
     bordercolor="#666666"
     borderopacity="1.0"
     inkscape:pageopacity="0.0"
     inkscape:pageshadow="2"
     inkscape:zoom="0.5873406"
     inkscape:cx="804.6033"
     inkscape:cy="870.80103"
     inkscape:document-units="px"
     inkscape:current-layer="g1000"
     showgrid="false"
     units="px"
     inkscape:snap-bbox="true"
     inkscape:bbox-paths="true"
     inkscape:bbox-nodes="true"
     inkscape:snap-bbox-midpoints="true"
     inkscape:snap-bbox-edge-midpoints="true"
     inkscape:object-paths="true"
     inkscape:snap-intersection-paths="true"
     inkscape:object-nodes="true"
     inkscape:snap-midpoints="true"
     inkscape:snap-smooth-nodes="true"
     inkscape:snap-object-midpoints="true"
     inkscape:snap-center="true"
     inkscape:snap-text-baseline="true"
     inkscape:snap-page="true"
     showguides="true"
     inkscape:guide-bbox="true"
     inkscape:measure-start="576.373,400"
     inkscape:measure-end="576.373,363.883"
     inkscape:window-width="1366"
     inkscape:window-height="740"
     inkscape:window-x="0"
     inkscape:window-y="0"
     inkscape:window-maximized="1"
     fit-margin-top="0"
     fit-margin-left="0"
     fit-margin-right="0"
     fit-margin-bottom="0">
    <sodipodi:guide
       position="92.604165,115.08295"
       orientation="1,0"
       id="guide5224"
       inkscape:locked="false"
       inkscape:label=""
       inkscape:color="rgb(0,0,255)" />
    <sodipodi:guide
       position="331.10046,100.89293"
       orientation="1,0"
       id="guide5226"
       inkscape:locked="false" />
    <sodipodi:guide
       position="8.8817842e-16,326.76041"
       orientation="0,1"
       id="guide5228"
       inkscape:locked="false" />
    <sodipodi:guide
       position="8.8817842e-16,339.97877"
       orientation="0,1"
       id="guide5230"
       inkscape:locked="false"
       inkscape:label=""
       inkscape:color="rgb(0,0,255)" />
    <sodipodi:guide
       position="99.218748,303.73543"
       orientation="1,0"
       id="guide5232"
       inkscape:locked="false"
       inkscape:label=""
       inkscape:color="rgb(0,0,255)" />
    <sodipodi:guide
       position="324.11458,353.20795"
       orientation="1,0"
       id="guide5234"
       inkscape:locked="false"
       inkscape:label=""
       inkscape:color="rgb(0,0,255)" />
    <sodipodi:guide
       position="211.66664,326.74962"
       orientation="1,0"
       id="guide5601"
       inkscape:locked="false" />
    <sodipodi:guide
       position="209.02082,211.65586"
       orientation="1,0"
       id="guide5603"
       inkscape:locked="false"
       inkscape:label=""
       inkscape:color="rgb(0,0,255)" />
    <sodipodi:guide
       position="214.31249,211.65587"
       orientation="1,0"
       id="guide5605"
       inkscape:locked="false"
       inkscape:label=""
       inkscape:color="rgb(0,0,255)" />
    <sodipodi:guide
       position="99.218744,333.66599"
       orientation="0,1"
       id="guide937"
       inkscape:locked="false" />
    <sodipodi:guide
       position="92.604162,322.1194"
       orientation="0,1"
       id="guide916"
       inkscape:locked="false"
       inkscape:label=""
       inkscape:color="rgb(0,0,255)" />
    <sodipodi:guide
       position="99.218748,-6.5975114"
       orientation="1,0"
       id="guide909"
       inkscape:locked="false" />
    <sodipodi:guide
       position="291.61898,321.14617"
       orientation="0,1"
       id="guide994"
       inkscape:locked="false" />
    <sodipodi:guide
       position="105.83333,295.55523"
       orientation="1,0"
       id="guide1136"
       inkscape:locked="false"
       inkscape:label=""
       inkscape:color="rgb(0,0,255)" />
    <sodipodi:guide
       position="105.83333,301.61419"
       orientation="0,1"
       id="guide1138"
       inkscape:locked="false"
       inkscape:label=""
       inkscape:color="rgb(0,0,255)" />
    <sodipodi:guide
       position="112.44789,178.58294"
       orientation="1,0"
       id="guide1274"
       inkscape:locked="false" />
    <sodipodi:guide
       position="120.12083,205.04128"
       orientation="1,0"
       id="guide1454"
       inkscape:locked="false"
       inkscape:label=""
       inkscape:color="rgb(0,0,255)" />
    <sodipodi:guide
       position="125.4125,195.2517"
       orientation="1,0"
       id="guide1460"
       inkscape:locked="false"
       inkscape:label=""
       inkscape:color="rgb(0,0,255)" />
    <sodipodi:guide
       position="318.82289,242.08294"
       orientation="1,0"
       id="guide1464"
       inkscape:locked="false" />
    <sodipodi:guide
       position="99.218748,189.16628"
       orientation="0,1"
       id="guide999"
       inkscape:locked="false" />
    <sodipodi:guide
       position="99.218744,183.21315"
       orientation="0,1"
       id="guide1060"
       inkscape:locked="false"
       inkscape:label=""
       inkscape:color="rgb(0,0,255)" />
    <sodipodi:guide
       position="209.0208,164.03086"
       orientation="0,1"
       id="guide1094"
       inkscape:locked="false" />
    <sodipodi:guide
       position="165.36457,220.91628"
       orientation="0,1"
       id="guide1096"
       inkscape:locked="false" />
    <sodipodi:guide
       position="165.36456,126.9892"
       orientation="0,1"
       id="guide1098"
       inkscape:locked="false"
       inkscape:label=""
       inkscape:color="rgb(0,0,255)" />
    <sodipodi:guide
       position="183.23145,51.582942"
       orientation="0,1"
       id="guide1279"
       inkscape:locked="false" />
  </sodipodi:namedview>
  <metadata
     id="metadata4668">
    <rdf:RDF>
      <cc:Work
         rdf:about="">
        <dc:format>image/svg+xml</dc:format>
        <dc:type
           rdf:resource="http://purl.org/dc/dcmitype/StillImage" />
        <dc:title />
      </cc:Work>
    </rdf:RDF>
  </metadata>
  <g
     inkscape:label="Layer 1"
     inkscape:groupmode="layer"
     id="layer1"
     transform="translate(0,-58.864193)">
    <rect
       style="opacity:1;fill:#72674b;fill-opacity:1;fill-rule:nonzero;stroke:none;stroke-width:1.21790314;stroke-linecap:butt;stroke-linejoin:bevel;stroke-miterlimit:4;stroke-dasharray:none;stroke-opacity:1"
       id="rect5236"
       width="423.33331"
       height="353.20795"
       x="0"
       y="58.874992" />
    <g
       id="g921">
      <rect
         y="58.864193"
         x="0"
         height="26.458334"
         width="423.33331"
         id="rect5216"
         style="opacity:1;fill:#406b8e;fill-opacity:1;fill-rule:nonzero;stroke:none;stroke-width:1.00020421;stroke-linecap:butt;stroke-linejoin:bevel;stroke-miterlimit:4;stroke-dasharray:none;stroke-opacity:1" />
      <text
         id="text5222"
         y="78.416954"
         x="97.606445"
         style="font-style:normal;font-variant:normal;font-weight:normal;font-stretch:normal;font-size:16.93333244px;line-height:1.25;font-family:'DejaVu Sans Mono';-inkscape-font-specification:'DejaVu Sans Mono';letter-spacing:0px;word-spacing:0px;fill:#ffffff;fill-opacity:1;stroke:none;stroke-width:0.26458332"
         xml:space="preserve"><tspan
           style="font-style:normal;font-variant:normal;font-weight:normal;font-stretch:normal;font-family:'DejaVu Sans Mono';-inkscape-font-specification:'DejaVu Sans Mono';fill:#ffffff;fill-opacity:1;stroke-width:0.26458332"
           y="78.416954"
           x="97.606445"
           id="tspan5220"
           sodipodi:role="line">code:sub</tspan></text>
    </g>
    <g
       id="g5610"
       transform="translate(9.9999758e-7,3.2635817e-6)" />
    <g
       transform="translate(1.7529297e-6,13.22917)"
       id="g5610-6" />
    <g
       id="g1000">
      <rect
         y="94.582939"
         x="92.604164"
         height="317.5"
         width="238.125"
         id="rect5218"
         style="opacity:1;fill:#e8f1d0;fill-opacity:1;fill-rule:nonzero;stroke:none;stroke-width:1.51924825;stroke-linecap:butt;stroke-linejoin:bevel;stroke-miterlimit:4;stroke-dasharray:none;stroke-opacity:1" />
      <text
         id="text5242"
         y="110.46874"
         x="105.83333"
         style="font-style:normal;font-variant:normal;font-weight:normal;font-stretch:normal;font-size:12.69999981px;line-height:1.25;font-family:Roboto;-inkscape-font-specification:Roboto;letter-spacing:0px;word-spacing:0px;fill:#000000;fill-opacity:1;stroke:none;stroke-width:0.26458332"
         xml:space="preserve"><tspan
           style="font-style:normal;font-variant:normal;font-weight:normal;font-stretch:normal;font-size:12.69999981px;font-family:'DejaVu Sans';-inkscape-font-specification:'DejaVu Sans';stroke-width:0.26458332"
           y="110.46874"
           x="105.83333"
           id="tspan5240"
           sodipodi:role="line">Assignments</tspan></text>
      <g
         id="g1068">
        <g
           id="g5302"
           transform="translate(1.0000014e-6,9.2604235)">
          <g
             id="g5274">
            <rect
               style="opacity:1;fill:#000000;fill-opacity:1;fill-rule:nonzero;stroke:none;stroke-width:0.99999994;stroke-linecap:butt;stroke-linejoin:miter;stroke-miterlimit:4;stroke-dasharray:none;stroke-opacity:1"
               id="rect5252"
               width="26.458334"
               height="26.458334"
               x="99.21875"
               y="111.79166" />
            <rect
               style="opacity:1;fill:#ffff8c;fill-opacity:1;fill-rule:nonzero;stroke:none;stroke-width:1.19425404;stroke-linecap:butt;stroke-linejoin:miter;stroke-miterlimit:4;stroke-dasharray:none;stroke-opacity:1"
               id="rect5270"
               width="25.4"
               height="25.4"
               x="99.747917"
               y="112.32082" />
          </g>
          <g
             transform="translate(-0.49999257,0.29547598)"
             id="g5292">
            <text
               xml:space="preserve"
               style="font-style:normal;font-variant:normal;font-weight:normal;font-stretch:normal;font-size:16.63458061px;line-height:1.25;font-family:Roboto;-inkscape-font-specification:Roboto;letter-spacing:0px;word-spacing:0px;fill:#000000;fill-opacity:1;stroke:none;stroke-width:0.27121598"
               x="102.15559"
               y="128.91135"
               id="text5256"
               transform="scale(1.0243622,0.97621721)"><tspan
                 sodipodi:role="line"
                 id="tspan5254"
                 x="102.15559"
                 y="128.91135"
                 style="font-size:16.63458061px;stroke-width:0.27121598">01</tspan></text>
            <text
               xml:space="preserve"
               style="font-style:normal;font-variant:normal;font-weight:normal;font-stretch:normal;font-size:10.72872257px;line-height:1.25;font-family:Roboto;-inkscape-font-specification:Roboto;letter-spacing:0px;word-spacing:0px;fill:#000000;fill-opacity:1;stroke:none;stroke-width:0.33527255"
               x="98.42762"
               y="138.60509"
               id="text5262"
               transform="scale(1.0243622,0.97621721)"><tspan
                 sodipodi:role="line"
                 id="tspan5260"
                 x="98.42762"
                 y="138.60509"
                 style="font-size:10.72872257px;stroke-width:0.33527255">MAR</tspan></text>
          </g>
        </g>
        <rect
           style="opacity:1;fill:#ffffff;fill-opacity:1;fill-rule:nonzero;stroke:none;stroke-width:1.02426124;stroke-linecap:butt;stroke-linejoin:miter;stroke-miterlimit:4;stroke-dasharray:none;stroke-opacity:1"
           id="rect5359"
           width="197.11459"
           height="26.458326"
           x="127"
           y="121.05207" />
        <g
           id="g5475"
           transform="translate(0,9.2604167)">
          <text
             id="text5392"
             y="132.38248"
             x="132.10678"
             style="font-style:normal;font-variant:normal;font-weight:normal;font-stretch:normal;font-size:8.27593136px;line-height:1.25;font-family:Roboto;-inkscape-font-specification:Roboto;text-decoration: underline;text-decoration-line: underline;letter-spacing:0px;word-spacing:0px;fill:#000000;fill-opacity:1;stroke:none;stroke-width:0.12931143"
             xml:space="preserve"><tspan
               style="font-style:normal;font-variant:normal;font-weight:normal;font-stretch:normal;font-size:6.20694923px;font-family:'DejaVu Sans';-inkscape-font-specification:'DejaVu Sans';stroke-width:0.12931143"
               y="132.38248"
               x="132.10678"
               id="tspan5390"
               sodipodi:role="line">Computer Graphics</tspan></text>
          <text
             id="text5396"
             y="123.29738"
             x="132.09343"
             style="font-style:normal;font-variant:normal;font-weight:normal;font-stretch:normal;font-size:8.28542328px;line-height:1.25;font-family:Roboto;-inkscape-font-specification:Roboto;letter-spacing:0px;word-spacing:0px;fill:#000000;fill-opacity:1;stroke:none;stroke-width:0.25891945"
             xml:space="preserve"><tspan
               style="font-size:8.28542328px;stroke-width:0.25891945"
               y="123.29738"
               x="132.09343"
               id="tspan5394"
               sodipodi:role="line">Taak 1: Matrixvermenigvuldiging</tspan></text>
        </g>
        <text
           xml:space="preserve"
           style="font-style:normal;font-variant:normal;font-weight:normal;font-stretch:normal;font-size:16.93333244px;line-height:1.25;font-family:Roboto;-inkscape-font-specification:Roboto;text-align:end;letter-spacing:0px;word-spacing:0px;text-anchor:end;fill:#000000;fill-opacity:1;stroke:none;stroke-width:0.26458332"
           x="318.53354"
           y="141.31544"
           id="text5508"><tspan
             sodipodi:role="line"
             id="tspan5506"
             x="318.53354"
             y="141.31544"
             style="font-size:4.23333359px;text-align:end;text-anchor:end;fill:#000000;fill-opacity:1;stroke-width:0.26458332">in pipeline</tspan></text>
      </g>
      <g
         id="g1049">
        <g
           id="g5302-9"
           transform="translate(1.0000014e-6,37.041674)">
          <g
             id="g5274-6">
            <rect
               style="opacity:1;fill:#040404;fill-opacity:1;fill-rule:nonzero;stroke:none;stroke-width:0.99999994;stroke-linecap:butt;stroke-linejoin:miter;stroke-miterlimit:4;stroke-dasharray:none;stroke-opacity:1"
               id="rect5252-0"
               width="26.458334"
               height="26.458334"
               x="99.21875"
               y="111.79166" />
            <rect
               style="opacity:1;fill:#ff8c8c;fill-opacity:1;fill-rule:nonzero;stroke:none;stroke-width:1.19425404;stroke-linecap:butt;stroke-linejoin:miter;stroke-miterlimit:4;stroke-dasharray:none;stroke-opacity:1"
               id="rect5270-7"
               width="25.4"
               height="25.4"
               x="99.747917"
               y="112.32082" />
          </g>
          <g
             transform="translate(-0.49999257,0.29547598)"
             id="g5292-0">
            <text
               xml:space="preserve"
               style="font-style:normal;font-variant:normal;font-weight:normal;font-stretch:normal;font-size:16.63458061px;line-height:1.25;font-family:Roboto;-inkscape-font-specification:Roboto;letter-spacing:0px;word-spacing:0px;fill:#000000;fill-opacity:1;stroke:none;stroke-width:0.27121598"
               x="100.80727"
               y="128.91135"
               id="text5256-1"
               transform="scale(1.0243622,0.97621721)"><tspan
                 sodipodi:role="line"
                 id="tspan5254-0"
                 x="100.80727"
                 y="128.91135"
                 style="font-size:16.63458061px;stroke-width:0.27121598">07</tspan></text>
            <text
               xml:space="preserve"
               style="font-style:normal;font-variant:normal;font-weight:normal;font-stretch:normal;font-size:10.72872257px;line-height:1.25;font-family:Roboto;-inkscape-font-specification:Roboto;letter-spacing:0px;word-spacing:0px;fill:#000000;fill-opacity:1;stroke:none;stroke-width:0.33527255"
               x="98.42762"
               y="138.60509"
               id="text5262-1"
               transform="scale(1.0243622,0.97621721)"><tspan
                 sodipodi:role="line"
                 id="tspan5260-3"
                 x="98.42762"
                 y="138.60509"
                 style="font-size:10.72872257px;stroke-width:0.33527255">MAR</tspan></text>
          </g>
        </g>
        <rect
           style="opacity:1;fill:#ffffff;fill-opacity:1;fill-rule:nonzero;stroke:none;stroke-width:1.02426147;stroke-linecap:butt;stroke-linejoin:miter;stroke-miterlimit:4;stroke-dasharray:none;stroke-opacity:1"
           id="rect5359-7"
           width="197.11459"
           height="26.458336"
           x="127"
           y="148.83333" />
        <g
           transform="translate(1.404137e-5,37.041679)"
           id="g5475-9">
          <text
             id="text5392-0"
             y="132.38248"
             x="132.10678"
             style="font-style:normal;font-variant:normal;font-weight:normal;font-stretch:normal;font-size:8.27593136px;line-height:1.25;font-family:Roboto;-inkscape-font-specification:Roboto;text-decoration: underline;text-decoration-line: underline;letter-spacing:0px;word-spacing:0px;fill:#000000;fill-opacity:1;stroke:none;stroke-width:0.12931143"
             xml:space="preserve"><tspan
               style="font-style:normal;font-variant:normal;font-weight:normal;font-stretch:normal;font-size:6.20694923px;font-family:'DejaVu Sans';-inkscape-font-specification:'DejaVu Sans';stroke-width:0.12931143"
               y="132.38248"
               x="132.10678"
               id="tspan5390-9"
               sodipodi:role="line">Computer Graphics</tspan></text>
          <text
             id="text5396-9"
             y="123.29738"
             x="132.09343"
             style="font-style:normal;font-variant:normal;font-weight:normal;font-stretch:normal;font-size:8.28542328px;line-height:1.25;font-family:Roboto;-inkscape-font-specification:Roboto;letter-spacing:0px;word-spacing:0px;fill:#000000;fill-opacity:1;stroke:none;stroke-width:0.25891945"
             xml:space="preserve"><tspan
               style="font-size:8.28542328px;stroke-width:0.25891945"
               y="123.29738"
               x="132.09343"
               id="tspan5394-4"
               sodipodi:role="line">Taak 2: Lijnen Tekenen</tspan></text>
        </g>
        <text
           xml:space="preserve"
           style="font-style:normal;font-variant:normal;font-weight:normal;font-stretch:normal;font-size:16.93333244px;line-height:1.25;font-family:Roboto;-inkscape-font-specification:Roboto;letter-spacing:0px;word-spacing:0px;fill:#000000;fill-opacity:1;stroke:none;stroke-width:0.26458332"
           x="298.21027"
           y="169.14011"
           id="text5508-5"><tspan
             sodipodi:role="line"
             id="tspan5506-1"
             x="298.21027"
             y="169.14011"
             style="font-size:4.23333359px;stroke-width:0.26458332">tests failed</tspan></text>
      </g>
      <g
         id="g1530"
         transform="translate(-2.1888186e-5,101.86458)">
        <g
           transform="translate(1.0000014e-6,37.041674)"
           id="g1516">
          <g
             id="g1514" />
        </g>
        <g
           id="g1594">
          <text
             xml:space="preserve"
             style="font-style:normal;font-variant:normal;font-weight:normal;font-stretch:normal;font-size:12.69999981px;line-height:1.25;font-family:Roboto;-inkscape-font-specification:Roboto;letter-spacing:0px;word-spacing:0px;fill:#000000;fill-opacity:1;stroke:none;stroke-width:0.26458332"
             x="105.83333"
             y="196.45833"
             id="text5242-0"
             transform="translate(2.2252932e-5,-58.20833)"><tspan
               sodipodi:role="line"
               id="tspan5240-3"
               x="105.83333"
               y="196.45833"
               style="font-style:normal;font-variant:normal;font-weight:normal;font-stretch:normal;font-size:12.69999981px;font-family:'DejaVu Sans';-inkscape-font-specification:'DejaVu Sans';stroke-width:0.26458332">Teachers</tspan></text>
          <g
             id="g1004">
            <rect
               y="148.83333"
               x="99.218773"
               height="11.90625"
               width="109.80208"
               id="rect970"
               style="opacity:1;fill:#ffffff;fill-opacity:1;fill-rule:nonzero;stroke:none;stroke-width:0.46605563;stroke-linecap:butt;stroke-linejoin:miter;stroke-miterlimit:4;stroke-dasharray:none;stroke-opacity:1" />
            <text
               id="text974"
               y="157.1367"
               x="105.30935"
               style="font-style:normal;font-variant:normal;font-weight:normal;font-stretch:normal;font-size:6.3499999px;line-height:1.25;font-family:Roboto;-inkscape-font-specification:Roboto;letter-spacing:0px;word-spacing:0px;fill:#000000;fill-opacity:1;stroke:none;stroke-width:0.26458332"
               xml:space="preserve"><tspan
                 style="font-size:6.3499999px;stroke-width:0.26458332"
                 y="157.1367"
                 x="105.30935"
                 id="tspan972"
                 sodipodi:role="line">Karel Män</tspan></text>
          </g>
          <g
             transform="translate(115.09375)"
             id="g1004-1">
            <rect
               y="148.83333"
               x="99.218773"
               height="11.90625"
               width="109.80208"
               id="rect970-2"
               style="opacity:1;fill:#ffffff;fill-opacity:1;fill-rule:nonzero;stroke:none;stroke-width:0.46605563;stroke-linecap:butt;stroke-linejoin:miter;stroke-miterlimit:4;stroke-dasharray:none;stroke-opacity:1" />
            <text
               id="text974-7"
               y="157.1367"
               x="105.30935"
               style="font-style:normal;font-variant:normal;font-weight:normal;font-stretch:normal;font-size:6.3499999px;line-height:1.25;font-family:Roboto;-inkscape-font-specification:Roboto;letter-spacing:0px;word-spacing:0px;fill:#000000;fill-opacity:1;stroke:none;stroke-width:0.26458332"
               xml:space="preserve"><tspan
                 style="font-size:6.3499999px;stroke-width:0.26458332"
                 y="157.1367"
                 x="105.30935"
                 id="tspan972-0"
                 sodipodi:role="line">Kristine Fluiten</tspan></text>
          </g>
          <g
             id="g1092"
             transform="translate(0,13.229167)">
            <rect
               style="opacity:1;fill:#ffffff;fill-opacity:1;fill-rule:nonzero;stroke:none;stroke-width:0.46605563;stroke-linecap:butt;stroke-linejoin:miter;stroke-miterlimit:4;stroke-dasharray:none;stroke-opacity:1"
               id="rect1086"
               width="109.80208"
               height="11.90625"
               x="99.218773"
               y="148.83333" />
            <text
               xml:space="preserve"
               style="font-style:normal;font-variant:normal;font-weight:normal;font-stretch:normal;font-size:6.3499999px;line-height:1.25;font-family:Roboto;-inkscape-font-specification:Roboto;letter-spacing:0px;word-spacing:0px;fill:#000000;fill-opacity:1;stroke:none;stroke-width:0.26458332"
               x="105.30935"
               y="157.1367"
               id="text1090"><tspan
                 sodipodi:role="line"
                 id="tspan1088"
                 x="105.30935"
                 y="157.1367"
                 style="font-size:6.3499999px;stroke-width:0.26458332">Petra Pastel</tspan></text>
          </g>
        </g>
      </g>
      <g
         id="g1058"
         transform="translate(-4.0535992,41.010418)">
        <rect
           y="238.79166"
           x="169.41817"
           height="11.90625"
           width="92.604164"
           id="rect1596-6"
           style="opacity:1;fill:#ffffff;fill-opacity:1;fill-rule:nonzero;stroke:none;stroke-width:0.13229169;stroke-linecap:butt;stroke-linejoin:miter;stroke-miterlimit:4;stroke-dasharray:none;stroke-opacity:1" />
        <text
           xml:space="preserve"
           style="font-style:normal;font-variant:normal;font-weight:normal;font-stretch:normal;font-size:8.27593136px;line-height:1.25;font-family:Roboto;-inkscape-font-specification:Roboto;text-align:center;text-decoration: underline;text-decoration-line: underline;letter-spacing:0px;word-spacing:0px;text-anchor:middle;fill:#000000;fill-opacity:1;stroke:none;stroke-width:0.12931143"
           x="215.62175"
           y="246.45715"
           id="text5392-0-1-2"><tspan
             sodipodi:role="line"
             id="tspan5390-9-9-9"
             x="215.62175"
             y="246.45715"
             style="font-style:normal;font-variant:normal;font-weight:normal;font-stretch:normal;font-size:6.20694923px;font-family:'DejaVu Sans';-inkscape-font-specification:'DejaVu Sans';text-align:center;text-anchor:middle;stroke-width:0.12931143">manage teachers</tspan></text>
      </g>
      <g
         id="g1315"
         transform="translate(0,27.78125)">
        <g
           transform="translate(1.0000014e-6,37.041674)"
           id="g1297">
          <g
             id="g1285">
            <rect
               y="111.79166"
               x="99.21875"
               height="26.458334"
               width="26.458334"
               id="rect1281"
               style="opacity:1;fill:#040404;fill-opacity:1;fill-rule:nonzero;stroke:none;stroke-width:0.99999994;stroke-linecap:butt;stroke-linejoin:miter;stroke-miterlimit:4;stroke-dasharray:none;stroke-opacity:1" />
            <rect
               y="112.32082"
               x="99.747917"
               height="25.4"
               width="25.4"
               id="rect1283"
               style="opacity:1;fill:#8cff8c;fill-opacity:1;fill-rule:nonzero;stroke:none;stroke-width:1.19425404;stroke-linecap:butt;stroke-linejoin:miter;stroke-miterlimit:4;stroke-dasharray:none;stroke-opacity:1" />
          </g>
          <g
             id="g1295"
             transform="translate(-0.49999257,0.29547598)">
            <text
               transform="scale(1.0243622,0.97621721)"
               id="text1289"
               y="128.91135"
               x="100.80727"
               style="font-style:normal;font-variant:normal;font-weight:normal;font-stretch:normal;font-size:16.63458061px;line-height:1.25;font-family:Roboto;-inkscape-font-specification:Roboto;letter-spacing:0px;word-spacing:0px;fill:#000000;fill-opacity:1;stroke:none;stroke-width:0.27121598"
               xml:space="preserve"><tspan
                 style="font-size:16.63458061px;stroke-width:0.27121598"
                 y="128.91135"
                 x="100.80727"
                 id="tspan1287"
                 sodipodi:role="line">14</tspan></text>
            <text
               transform="scale(1.0243622,0.97621721)"
               id="text1293"
               y="138.60509"
               x="98.42762"
               style="font-style:normal;font-variant:normal;font-weight:normal;font-stretch:normal;font-size:10.72872257px;line-height:1.25;font-family:Roboto;-inkscape-font-specification:Roboto;letter-spacing:0px;word-spacing:0px;fill:#000000;fill-opacity:1;stroke:none;stroke-width:0.33527255"
               xml:space="preserve"><tspan
                 style="font-size:10.72872257px;stroke-width:0.33527255"
                 y="138.60509"
                 x="98.42762"
                 id="tspan1291"
                 sodipodi:role="line">MAR</tspan></text>
          </g>
        </g>
        <rect
           y="148.83333"
           x="127"
           height="26.458336"
           width="197.11459"
           id="rect1299"
           style="opacity:1;fill:#ffffff;fill-opacity:1;fill-rule:nonzero;stroke:none;stroke-width:1.02426147;stroke-linecap:butt;stroke-linejoin:miter;stroke-miterlimit:4;stroke-dasharray:none;stroke-opacity:1" />
        <g
           id="g1309"
           transform="translate(1.404137e-5,37.041679)">
          <text
             xml:space="preserve"
             style="font-style:normal;font-variant:normal;font-weight:normal;font-stretch:normal;font-size:8.27593136px;line-height:1.25;font-family:Roboto;-inkscape-font-specification:Roboto;text-decoration: underline;text-decoration-line: underline;letter-spacing:0px;word-spacing:0px;fill:#000000;fill-opacity:1;stroke:none;stroke-width:0.12931143"
             x="132.10678"
             y="132.38248"
             id="text1303"><tspan
               sodipodi:role="line"
               id="tspan1301"
               x="132.10678"
               y="132.38248"
               style="font-style:normal;font-variant:normal;font-weight:normal;font-stretch:normal;font-size:6.20694923px;font-family:'DejaVu Sans';-inkscape-font-specification:'DejaVu Sans';stroke-width:0.12931143">Computer Graphics</tspan></text>
          <text
             xml:space="preserve"
             style="font-style:normal;font-variant:normal;font-weight:normal;font-stretch:normal;font-size:8.28542328px;line-height:1.25;font-family:Roboto;-inkscape-font-specification:Roboto;letter-spacing:0px;word-spacing:0px;fill:#000000;fill-opacity:1;stroke:none;stroke-width:0.25891945"
             x="132.09343"
             y="123.29738"
             id="text1307"><tspan
               sodipodi:role="line"
               id="tspan1305"
               x="132.09343"
               y="123.29738"
               style="font-size:8.28542328px;stroke-width:0.25891945">Taak 3: Crysis 4</tspan></text>
        </g>
        <text
           id="text1313"
           y="169.14011"
           x="295.03522"
           style="font-style:normal;font-variant:normal;font-weight:normal;font-stretch:normal;font-size:16.93333244px;line-height:1.25;font-family:Roboto;-inkscape-font-specification:Roboto;letter-spacing:0px;word-spacing:0px;fill:#000000;fill-opacity:1;stroke:none;stroke-width:0.26458332"
           xml:space="preserve"><tspan
             style="font-size:4.23333359px;stroke-width:0.26458332"
             y="169.14011"
             x="295.03522"
             id="tspan1311"
             sodipodi:role="line">tests passed</tspan></text>
      </g>
      <rect
         y="207.69989"
         x="99.951904"
         height="11.90625"
         width="133.61458"
         id="rect6942"
         style="opacity:1;fill:#ffffff;fill-opacity:1;fill-rule:nonzero;stroke:none;stroke-width:0.15890744;stroke-linecap:butt;stroke-linejoin:miter;stroke-miterlimit:4;stroke-dasharray:none;stroke-opacity:1" />
      <text
         xml:space="preserve"
         style="font-style:normal;font-variant:normal;font-weight:normal;font-stretch:normal;font-size:8.27593136px;line-height:1.25;font-family:Roboto;-inkscape-font-specification:Roboto;text-align:center;text-decoration: underline;text-decoration-line: underline;letter-spacing:0px;word-spacing:0px;text-anchor:middle;fill:#000000;fill-opacity:1;stroke:none;stroke-width:0.12931143"
         x="166.66373"
         y="215.36539"
         id="text6946"><tspan
           sodipodi:role="line"
           id="tspan6944"
           x="166.66373"
           y="215.36539"
           style="font-style:normal;font-variant:normal;font-weight:normal;font-stretch:normal;font-size:6.20694923px;font-family:'DejaVu Sans';-inkscape-font-specification:'DejaVu Sans';text-align:center;text-anchor:middle;stroke-width:0.12931143">create new assignment</tspan></text>
      <rect
         style="opacity:1;fill:#ff8080;fill-opacity:1;fill-rule:nonzero;stroke:none;stroke-width:0.13300571;stroke-linecap:butt;stroke-linejoin:miter;stroke-miterlimit:4;stroke-dasharray:none;stroke-opacity:1"
         id="rect1207-3-7-3"
         width="78.052078"
         height="11.916481"
         x="246.79567"
         y="-219.60614"
         transform="scale(1,-1)"
         ry="0" />
      <text
         xml:space="preserve"
         style="font-style:normal;font-variant:normal;font-weight:normal;font-stretch:normal;font-size:8.27593136px;line-height:1.25;font-family:Roboto;-inkscape-font-specification:Roboto;text-align:center;text-decoration: underline;text-decoration-line: underline;letter-spacing:0px;word-spacing:0px;text-anchor:middle;fill:#000000;fill-opacity:1;stroke:none;stroke-width:0.12931143"
         x="285.72623"
         y="215.36028"
         id="text6946-6"><tspan
           sodipodi:role="line"
           id="tspan6944-7"
           x="285.72623"
           y="215.36028"
           style="font-style:normal;font-variant:normal;font-weight:normal;font-stretch:normal;font-size:6.20694923px;font-family:'DejaVu Sans';-inkscape-font-specification:'DejaVu Sans';text-align:center;text-anchor:middle;stroke-width:0.12931143">delete course</tspan></text>
    </g>
    <g
       id="g926">
      <rect
         y="85.322525"
         x="-8.8817842e-16"
         height="9.260417"
         width="423.33328"
         id="rect4671"
         style="opacity:1;fill:#7fa7c7;fill-opacity:1;fill-rule:nonzero;stroke:none;stroke-width:0.25676632;stroke-linecap:butt;stroke-linejoin:miter;stroke-miterlimit:4;stroke-dasharray:none;stroke-opacity:1" />
      <text
         id="text935"
         y="90.936775"
         x="293.04221"
         style="font-style:normal;font-variant:normal;font-weight:normal;font-stretch:normal;font-size:3.52777791px;line-height:1.25;font-family:Roboto;-inkscape-font-specification:Roboto;text-align:end;letter-spacing:0px;word-spacing:0px;text-anchor:end;fill:#ffffff;fill-opacity:1;stroke:none;stroke-width:0.26458332"
         xml:space="preserve"><tspan
           id="tspan949"
           style="font-style:normal;font-variant:normal;font-weight:normal;font-stretch:normal;font-size:3.52777791px;font-family:'DejaVu Sans';-inkscape-font-specification:'DejaVu Sans';text-align:end;text-anchor:end;fill:#ffffff;fill-opacity:1;stroke-width:0.26458332"
           y="90.936775"
           x="293.04221"
           sodipodi:role="line">logged in as</tspan></text>
      <text
         id="text935-3"
         y="90.93676"
         x="99.21875"
         style="font-style:normal;font-variant:normal;font-weight:normal;font-stretch:normal;font-size:3.52777791px;line-height:1.25;font-family:Roboto;-inkscape-font-specification:Roboto;text-align:start;letter-spacing:0px;word-spacing:0px;text-anchor:start;fill:#ffffff;fill-opacity:1;stroke:none;stroke-width:0.26458332"
         xml:space="preserve"><tspan
           id="tspan949-6"
           style="font-style:normal;font-variant:normal;font-weight:normal;font-stretch:normal;font-size:3.52777791px;font-family:'DejaVu Sans';-inkscape-font-specification:'DejaVu Sans';text-align:start;text-anchor:start;fill:#ffffff;fill-opacity:1;stroke-width:0.26458332"
           y="90.93676"
           x="99.21875"
           sodipodi:role="line">/</tspan></text>
      <text
         id="text935-3-7"
         y="90.93676"
         x="100.93648"
         style="font-style:normal;font-variant:normal;font-weight:normal;font-stretch:normal;font-size:3.52777791px;line-height:1.25;font-family:Roboto;-inkscape-font-specification:Roboto;text-align:start;text-decoration: underline;text-decoration-line: underline;letter-spacing:0px;word-spacing:0px;text-anchor:start;fill:#ffffff;fill-opacity:1;stroke:none;stroke-width:0.26458332"
         xml:space="preserve"><tspan
           id="tspan949-6-5"
           style="font-style:normal;font-variant:normal;font-weight:normal;font-stretch:normal;font-size:3.52777791px;font-family:'DejaVu Sans';-inkscape-font-specification:'DejaVu Sans';text-align:start;text-anchor:start;fill:#ffffff;fill-opacity:1;stroke-width:0.26458332"
           y="90.93676"
           x="100.93648"
           sodipodi:role="line">courses</tspan></text>
      <text
         id="text935-3-3"
         y="90.986717"
         x="114.93425"
         style="font-style:normal;font-variant:normal;font-weight:normal;font-stretch:normal;font-size:3.52777791px;line-height:1.25;font-family:Roboto;-inkscape-font-specification:Roboto;text-align:start;letter-spacing:0px;word-spacing:0px;text-anchor:start;fill:#ffffff;fill-opacity:1;stroke:none;stroke-width:0.26458332"
         xml:space="preserve"><tspan
           id="tspan949-6-6"
           style="font-style:normal;font-variant:normal;font-weight:normal;font-stretch:normal;font-size:3.52777791px;font-family:'DejaVu Sans';-inkscape-font-specification:'DejaVu Sans';text-align:start;text-anchor:start;fill:#ffffff;fill-opacity:1;stroke-width:0.26458332"
           y="90.986717"
           x="114.93425"
           sodipodi:role="line">/</tspan></text>
      <text
         id="text935-3-7-3"
         y="90.827385"
         x="116.45731"
         style="font-style:normal;font-variant:normal;font-weight:normal;font-stretch:normal;font-size:3.52777791px;line-height:1.25;font-family:Roboto;-inkscape-font-specification:Roboto;text-align:start;text-decoration: underline;text-decoration-line: underline;letter-spacing:0px;word-spacing:0px;text-anchor:start;fill:#ffffff;fill-opacity:1;stroke:none;stroke-width:0.26458332"
         xml:space="preserve"><tspan
           id="tspan949-6-5-6"
           style="font-style:normal;font-variant:normal;font-weight:normal;font-stretch:normal;font-size:3.52777791px;font-family:'DejaVu Sans';-inkscape-font-specification:'DejaVu Sans';text-align:start;text-anchor:start;fill:#ffffff;fill-opacity:1;stroke-width:0.26458332"
           y="90.827385"
           x="116.45731"
           sodipodi:role="line">Computer Graphics</tspan></text>
      <text
         id="text935-3-3-7"
         y="90.976387"
         x="151.07742"
         style="font-style:normal;font-variant:normal;font-weight:normal;font-stretch:normal;font-size:3.52777791px;line-height:1.25;font-family:Roboto;-inkscape-font-specification:Roboto;text-align:start;letter-spacing:0px;word-spacing:0px;text-anchor:start;fill:#ffffff;fill-opacity:1;stroke:none;stroke-width:0.26458332"
         xml:space="preserve"><tspan
           id="tspan949-6-6-5"
           style="font-style:normal;font-variant:normal;font-weight:normal;font-stretch:normal;font-size:3.52777791px;font-family:'DejaVu Sans';-inkscape-font-specification:'DejaVu Sans';text-align:start;text-anchor:start;fill:#ffffff;fill-opacity:1;stroke-width:0.26458332"
           y="90.976387"
           x="151.07742"
           sodipodi:role="line">/</tspan></text>
    </g>
    <text
       xml:space="preserve"
       style="font-style:normal;font-variant:normal;font-weight:normal;font-stretch:normal;font-size:16.93333244px;line-height:1.25;font-family:Roboto;-inkscape-font-specification:Roboto;text-decoration: underline;text-decoration-line: underline;letter-spacing:0px;word-spacing:0px;fill:#ffffff;fill-opacity:1;stroke:none;stroke-width:0.26458332"
       x="294.35068"
       y="90.928162"
       id="text957"><tspan
         sodipodi:role="line"
         id="tspan955"
         x="294.35068"
         y="90.928162"
         style="font-size:3.52777791px;fill:#ffffff;fill-opacity:1;stroke-width:0.26458332">Wilfried Van Groen</tspan></text>
    <g
       transform="translate(-2.0500002e-5,174.625)"
       id="g1594-7">
      <text
         xml:space="preserve"
         style="font-style:normal;font-variant:normal;font-weight:normal;font-stretch:normal;font-size:12.69999981px;line-height:1.25;font-family:Roboto;-inkscape-font-specification:Roboto;letter-spacing:0px;word-spacing:0px;fill:#000000;fill-opacity:1;stroke:none;stroke-width:0.26458332"
         x="105.83333"
         y="196.45833"
         id="text5242-0-5"
         transform="translate(2.2252932e-5,-58.20833)"><tspan
           sodipodi:role="line"
           id="tspan5240-3-9"
           x="105.83333"
           y="196.45833"
           style="font-style:normal;font-variant:normal;font-weight:normal;font-stretch:normal;font-size:12.69999981px;font-family:'DejaVu Sans';-inkscape-font-specification:'DejaVu Sans';stroke-width:0.26458332">Students</tspan></text>
      <g
         id="g1004-2">
        <rect
           y="148.83333"
           x="99.218773"
           height="11.90625"
           width="109.80208"
           id="rect970-28"
           style="opacity:1;fill:#ffffff;fill-opacity:1;fill-rule:nonzero;stroke:none;stroke-width:0.46605563;stroke-linecap:butt;stroke-linejoin:miter;stroke-miterlimit:4;stroke-dasharray:none;stroke-opacity:1" />
        <text
           id="text974-9"
           y="157.1367"
           x="105.30935"
           style="font-style:normal;font-variant:normal;font-weight:normal;font-stretch:normal;font-size:6.3499999px;line-height:1.25;font-family:Roboto;-inkscape-font-specification:Roboto;letter-spacing:0px;word-spacing:0px;fill:#000000;fill-opacity:1;stroke:none;stroke-width:0.26458332"
           xml:space="preserve"><tspan
             style="font-size:6.3499999px;stroke-width:0.26458332"
             y="157.1367"
             x="105.30935"
             id="tspan972-7"
             sodipodi:role="line">An Van De Bakker</tspan></text>
      </g>
      <g
         transform="translate(115.09375)"
         id="g1004-1-3">
        <rect
           y="148.83333"
           x="99.218773"
           height="11.90625"
           width="109.80208"
           id="rect970-2-6"
           style="opacity:1;fill:#ffffff;fill-opacity:1;fill-rule:nonzero;stroke:none;stroke-width:0.46605563;stroke-linecap:butt;stroke-linejoin:miter;stroke-miterlimit:4;stroke-dasharray:none;stroke-opacity:1" />
        <text
           id="text974-7-1"
           y="157.1367"
           x="105.30935"
           style="font-style:normal;font-variant:normal;font-weight:normal;font-stretch:normal;font-size:6.3499999px;line-height:1.25;font-family:Roboto;-inkscape-font-specification:Roboto;letter-spacing:0px;word-spacing:0px;fill:#000000;fill-opacity:1;stroke:none;stroke-width:0.26458332"
           xml:space="preserve"><tspan
             style="font-size:6.3499999px;stroke-width:0.26458332"
             y="157.1367"
             x="105.30935"
             id="tspan972-0-2"
             sodipodi:role="line">Eva Van De Kerk</tspan></text>
      </g>
      <g
         id="g1197"
         transform="translate(0,13.229167)">
        <rect
           style="opacity:1;fill:#ffffff;fill-opacity:1;fill-rule:nonzero;stroke:none;stroke-width:0.46605563;stroke-linecap:butt;stroke-linejoin:miter;stroke-miterlimit:4;stroke-dasharray:none;stroke-opacity:1"
           id="rect1191"
           width="109.80208"
           height="11.90625"
           x="99.218773"
           y="148.83333" />
        <text
           xml:space="preserve"
           style="font-style:normal;font-variant:normal;font-weight:normal;font-stretch:normal;font-size:6.3499999px;line-height:1.25;font-family:Roboto;-inkscape-font-specification:Roboto;letter-spacing:0px;word-spacing:0px;fill:#000000;fill-opacity:1;stroke:none;stroke-width:0.26458332"
           x="105.30935"
           y="157.1367"
           id="text1195"><tspan
             sodipodi:role="line"
             id="tspan1193"
             x="105.30935"
             y="157.1367"
             style="font-size:6.3499999px;stroke-width:0.26458332">Frans Van Grieken</tspan></text>
      </g>
      <g
         id="g1205"
         transform="translate(115.09375,13.229167)">
        <rect
           style="opacity:1;fill:#ffffff;fill-opacity:1;fill-rule:nonzero;stroke:none;stroke-width:0.46605563;stroke-linecap:butt;stroke-linejoin:miter;stroke-miterlimit:4;stroke-dasharray:none;stroke-opacity:1"
           id="rect1199"
           width="109.80208"
           height="11.90625"
           x="99.218773"
           y="148.83333" />
        <text
           xml:space="preserve"
           style="font-style:normal;font-variant:normal;font-weight:normal;font-stretch:normal;font-size:6.3499999px;line-height:1.25;font-family:Roboto;-inkscape-font-specification:Roboto;letter-spacing:0px;word-spacing:0px;fill:#000000;fill-opacity:1;stroke:none;stroke-width:0.26458332"
           x="105.30935"
           y="157.1367"
           id="text1203"><tspan
             sodipodi:role="line"
             id="tspan1201"
             x="105.30935"
             y="157.1367"
             style="font-size:6.3499999px;stroke-width:0.26458332">Harry Todo</tspan></text>
      </g>
      <g
         transform="translate(0,26.458334)"
         id="g1213">
        <rect
           y="148.83333"
           x="99.218773"
           height="11.90625"
           width="109.80208"
           id="rect1207"
           style="opacity:1;fill:#ffffff;fill-opacity:1;fill-rule:nonzero;stroke:none;stroke-width:0.46605563;stroke-linecap:butt;stroke-linejoin:miter;stroke-miterlimit:4;stroke-dasharray:none;stroke-opacity:1" />
        <text
           id="text1211"
           y="157.1367"
           x="105.30935"
           style="font-style:normal;font-variant:normal;font-weight:normal;font-stretch:normal;font-size:6.3499999px;line-height:1.25;font-family:Roboto;-inkscape-font-specification:Roboto;letter-spacing:0px;word-spacing:0px;fill:#000000;fill-opacity:1;stroke:none;stroke-width:0.26458332"
           xml:space="preserve"><tspan
             style="font-size:6.3499999px;stroke-width:0.26458332"
             y="157.1367"
             x="105.30935"
             id="tspan1209"
             sodipodi:role="line">Ines Vermeers</tspan></text>
      </g>
      <g
         transform="translate(115.09375,26.458334)"
         id="g1221">
        <rect
           y="148.83333"
           x="99.218773"
           height="11.90625"
           width="109.80208"
           id="rect1215"
           style="opacity:1;fill:#ffffff;fill-opacity:1;fill-rule:nonzero;stroke:none;stroke-width:0.46605563;stroke-linecap:butt;stroke-linejoin:miter;stroke-miterlimit:4;stroke-dasharray:none;stroke-opacity:1" />
        <text
           id="text1219"
           y="157.1367"
           x="105.30935"
           style="font-style:normal;font-variant:normal;font-weight:normal;font-stretch:normal;font-size:6.3499999px;line-height:1.25;font-family:Roboto;-inkscape-font-specification:Roboto;letter-spacing:0px;word-spacing:0px;fill:#000000;fill-opacity:1;stroke:none;stroke-width:0.26458332"
           xml:space="preserve"><tspan
             style="font-size:6.3499999px;stroke-width:0.26458332"
             y="157.1367"
             x="105.30935"
             id="tspan1217"
             sodipodi:role="line">Joris Brood</tspan></text>
      </g>
      <g
         id="g1229"
         transform="translate(0,39.687501)">
        <rect
           style="opacity:1;fill:#ffffff;fill-opacity:1;fill-rule:nonzero;stroke:none;stroke-width:0.46605563;stroke-linecap:butt;stroke-linejoin:miter;stroke-miterlimit:4;stroke-dasharray:none;stroke-opacity:1"
           id="rect1223"
           width="109.80208"
           height="11.90625"
           x="99.218773"
           y="148.83333" />
        <text
           xml:space="preserve"
           style="font-style:normal;font-variant:normal;font-weight:normal;font-stretch:normal;font-size:6.3499999px;line-height:1.25;font-family:Roboto;-inkscape-font-specification:Roboto;letter-spacing:0px;word-spacing:0px;fill:#000000;fill-opacity:1;stroke:none;stroke-width:0.26458332"
           x="105.30935"
           y="157.1367"
           id="text1227"><tspan
             sodipodi:role="line"
             id="tspan1225"
             x="105.30935"
             y="157.1367"
             style="font-size:6.3499999px;stroke-width:0.26458332">Nero Keizer</tspan></text>
      </g>
      <g
         id="g1237"
         transform="translate(115.09375,39.687501)">
        <rect
           style="opacity:1;fill:#ffffff;fill-opacity:1;fill-rule:nonzero;stroke:none;stroke-width:0.46605563;stroke-linecap:butt;stroke-linejoin:miter;stroke-miterlimit:4;stroke-dasharray:none;stroke-opacity:1"
           id="rect1231"
           width="109.80208"
           height="11.90625"
           x="99.218773"
           y="148.83333" />
        <text
           xml:space="preserve"
           style="font-style:normal;font-variant:normal;font-weight:normal;font-stretch:normal;font-size:6.3499999px;line-height:1.25;font-family:Roboto;-inkscape-font-specification:Roboto;letter-spacing:0px;word-spacing:0px;fill:#000000;fill-opacity:1;stroke:none;stroke-width:0.26458332"
           x="105.30935"
           y="157.1367"
           id="text1235"><tspan
             sodipodi:role="line"
             id="tspan1233"
             x="105.30935"
             y="157.1367"
             style="font-size:6.3499999px;stroke-width:0.26458332">Pol Pool</tspan></text>
      </g>
      <g
         transform="translate(0,52.916668)"
         id="g1245">
        <rect
           y="148.83333"
           x="99.218773"
           height="11.90625"
           width="109.80208"
           id="rect1239"
           style="opacity:1;fill:#ffffff;fill-opacity:1;fill-rule:nonzero;stroke:none;stroke-width:0.46605563;stroke-linecap:butt;stroke-linejoin:miter;stroke-miterlimit:4;stroke-dasharray:none;stroke-opacity:1" />
        <text
           id="text1243"
           y="157.1367"
           x="105.30935"
           style="font-style:normal;font-variant:normal;font-weight:normal;font-stretch:normal;font-size:6.3499999px;line-height:1.25;font-family:Roboto;-inkscape-font-specification:Roboto;letter-spacing:0px;word-spacing:0px;fill:#000000;fill-opacity:1;stroke:none;stroke-width:0.26458332"
           xml:space="preserve"><tspan
             style="font-size:6.3499999px;stroke-width:0.26458332"
             y="157.1367"
             x="105.30935"
             id="tspan1241"
             sodipodi:role="line">Steven Kapot</tspan></text>
      </g>
      <g
         transform="translate(115.09375,52.916668)"
         id="g1253">
        <rect
           y="148.83333"
           x="99.218773"
           height="11.90625"
           width="109.80208"
           id="rect1247"
           style="opacity:1;fill:#ffffff;fill-opacity:1;fill-rule:nonzero;stroke:none;stroke-width:0.46605563;stroke-linecap:butt;stroke-linejoin:miter;stroke-miterlimit:4;stroke-dasharray:none;stroke-opacity:1" />
        <text
           id="text1251"
           y="157.1367"
           x="105.30935"
           style="font-style:normal;font-variant:normal;font-weight:normal;font-stretch:normal;font-size:6.3499999px;line-height:1.25;font-family:Roboto;-inkscape-font-specification:Roboto;letter-spacing:0px;word-spacing:0px;fill:#000000;fill-opacity:1;stroke:none;stroke-width:0.26458332"
           xml:space="preserve"><tspan
             style="font-size:6.3499999px;stroke-width:0.26458332"
             y="157.1367"
             x="105.30935"
             id="tspan1249"
             sodipodi:role="line">Wilfried Van Groen</tspan></text>
      </g>
      <g
         id="g1058-4"
         transform="translate(-4.0535787,-21.166658)">
        <rect
           y="238.79166"
           x="169.41817"
           height="11.90625"
           width="92.604164"
           id="rect1596-6-7"
           style="opacity:1;fill:#ffffff;fill-opacity:1;fill-rule:nonzero;stroke:none;stroke-width:0.13229169;stroke-linecap:butt;stroke-linejoin:miter;stroke-miterlimit:4;stroke-dasharray:none;stroke-opacity:1" />
        <text
           xml:space="preserve"
           style="font-style:normal;font-variant:normal;font-weight:normal;font-stretch:normal;font-size:8.27593136px;line-height:1.25;font-family:Roboto;-inkscape-font-specification:Roboto;text-align:center;text-decoration: underline;text-decoration-line: underline;letter-spacing:0px;word-spacing:0px;text-anchor:middle;fill:#000000;fill-opacity:1;stroke:none;stroke-width:0.12931143"
           x="215.62175"
           y="246.45715"
           id="text5392-0-1-2-8"><tspan
             sodipodi:role="line"
             id="tspan5390-9-9-9-4"
             x="215.62175"
             y="246.45715"
             style="font-style:normal;font-variant:normal;font-weight:normal;font-stretch:normal;font-size:6.20694923px;font-family:'DejaVu Sans';-inkscape-font-specification:'DejaVu Sans';text-align:center;text-anchor:middle;stroke-width:0.12931143">manage students</tspan></text>
      </g>
    </g>
  </g>
</svg>
