<?xml version="1.0" encoding="UTF-8" standalone="no"?>
<!-- Created with Inkscape (http://www.inkscape.org/) -->

<svg
   xmlns:dc="http://purl.org/dc/elements/1.1/"
   xmlns:cc="http://creativecommons.org/ns#"
   xmlns:rdf="http://www.w3.org/1999/02/22-rdf-syntax-ns#"
   xmlns:svg="http://www.w3.org/2000/svg"
   xmlns="http://www.w3.org/2000/svg"
   xmlns:sodipodi="http://sodipodi.sourceforge.net/DTD/sodipodi-0.dtd"
   xmlns:inkscape="http://www.inkscape.org/namespaces/inkscape"
   width="1599.9999"
   height="786.24432"
   viewBox="0 0 423.33329 208.02715"
   version="1.1"
   id="svg4671"
   inkscape:version="0.92.2 5c3e80d, 2017-08-06"
   sodipodi:docname="submission_history.svg">
  <defs
     id="defs4665" />
  <sodipodi:namedview
     id="base"
     pagecolor="#ffffff"
     bordercolor="#666666"
     borderopacity="1.0"
     inkscape:pageopacity="0.0"
     inkscape:pageshadow="2"
     inkscape:zoom="0.1767767"
     inkscape:cx="1118.6692"
     inkscape:cy="-304.62565"
     inkscape:document-units="px"
     inkscape:current-layer="layer1"
     showgrid="false"
     units="px"
     inkscape:snap-bbox="true"
     inkscape:bbox-paths="true"
     inkscape:bbox-nodes="true"
     inkscape:snap-bbox-midpoints="true"
     inkscape:snap-bbox-edge-midpoints="true"
     inkscape:object-paths="true"
     inkscape:snap-intersection-paths="true"
     inkscape:object-nodes="true"
     inkscape:snap-midpoints="true"
     inkscape:snap-smooth-nodes="true"
     inkscape:snap-object-midpoints="true"
     inkscape:snap-center="true"
     inkscape:snap-text-baseline="true"
     inkscape:snap-page="true"
     showguides="false"
     inkscape:guide-bbox="true"
     inkscape:measure-start="576.373,400"
     inkscape:measure-end="576.373,363.883"
     inkscape:window-width="1366"
     inkscape:window-height="740"
     inkscape:window-x="0"
     inkscape:window-y="0"
     inkscape:window-maximized="1"
     fit-margin-top="0"
     fit-margin-left="0"
     fit-margin-right="0"
     fit-margin-bottom="0">
    <sodipodi:guide
       position="92.604165,-30.097855"
       orientation="1,0"
       id="guide5224"
       inkscape:locked="false"
       inkscape:label=""
       inkscape:color="rgb(0,0,255)" />
    <sodipodi:guide
       position="331.10046,-44.287875"
       orientation="1,0"
       id="guide5226"
       inkscape:locked="false" />
    <sodipodi:guide
       position="8.8817842e-16,181.57961"
       orientation="0,1"
       id="guide5228"
       inkscape:locked="false" />
    <sodipodi:guide
       position="8.8817842e-16,194.79797"
       orientation="0,1"
       id="guide5230"
       inkscape:locked="false"
       inkscape:label=""
       inkscape:color="rgb(0,0,255)" />
    <sodipodi:guide
       position="99.218748,158.55463"
       orientation="1,0"
       id="guide5232"
       inkscape:locked="false"
       inkscape:label=""
       inkscape:color="rgb(0,0,255)" />
    <sodipodi:guide
       position="324.11458,208.02715"
       orientation="1,0"
       id="guide5234"
       inkscape:locked="false"
       inkscape:label=""
       inkscape:color="rgb(0,0,255)" />
    <sodipodi:guide
       position="211.66664,181.56882"
       orientation="1,0"
       id="guide5601"
       inkscape:locked="false" />
    <sodipodi:guide
       position="209.02082,66.475056"
       orientation="1,0"
       id="guide5603"
       inkscape:locked="false"
       inkscape:label=""
       inkscape:color="rgb(0,0,255)" />
    <sodipodi:guide
       position="214.31249,66.475066"
       orientation="1,0"
       id="guide5605"
       inkscape:locked="false"
       inkscape:label=""
       inkscape:color="rgb(0,0,255)" />
    <sodipodi:guide
       position="99.218744,188.48519"
       orientation="0,1"
       id="guide937"
       inkscape:locked="false" />
    <sodipodi:guide
       position="92.604162,176.9386"
       orientation="0,1"
       id="guide916"
       inkscape:locked="false"
       inkscape:label=""
       inkscape:color="rgb(0,0,255)" />
    <sodipodi:guide
       position="99.218748,-151.77832"
       orientation="1,0"
       id="guide909"
       inkscape:locked="false" />
    <sodipodi:guide
       position="291.61898,175.96537"
       orientation="0,1"
       id="guide994"
       inkscape:locked="false" />
    <sodipodi:guide
       position="105.83333,150.37443"
       orientation="1,0"
       id="guide1136"
       inkscape:locked="false"
       inkscape:label=""
       inkscape:color="rgb(0,0,255)" />
    <sodipodi:guide
       position="105.83333,156.43339"
       orientation="0,1"
       id="guide1138"
       inkscape:locked="false"
       inkscape:label=""
       inkscape:color="rgb(0,0,255)" />
    <sodipodi:guide
       position="112.44789,33.402135"
       orientation="1,0"
       id="guide1274"
       inkscape:locked="false" />
    <sodipodi:guide
       position="120.12083,59.860475"
       orientation="1,0"
       id="guide1454"
       inkscape:locked="false"
       inkscape:label=""
       inkscape:color="rgb(0,0,255)" />
    <sodipodi:guide
       position="125.4125,50.070895"
       orientation="1,0"
       id="guide1460"
       inkscape:locked="false"
       inkscape:label=""
       inkscape:color="rgb(0,0,255)" />
    <sodipodi:guide
       position="318.82289,96.902136"
       orientation="1,0"
       id="guide1464"
       inkscape:locked="false" />
    <sodipodi:guide
       position="99.218748,43.985475"
       orientation="0,1"
       id="guide999"
       inkscape:locked="false" />
    <sodipodi:guide
       position="99.218744,38.032345"
       orientation="0,1"
       id="guide1060"
       inkscape:locked="false"
       inkscape:label=""
       inkscape:color="rgb(0,0,255)" />
    <sodipodi:guide
       position="209.0208,18.850055"
       orientation="0,1"
       id="guide1094"
       inkscape:locked="false" />
    <sodipodi:guide
       position="165.36457,75.735476"
       orientation="0,1"
       id="guide1096"
       inkscape:locked="false" />
    <sodipodi:guide
       position="165.36456,-18.191605"
       orientation="0,1"
       id="guide1098"
       inkscape:locked="false"
       inkscape:label=""
       inkscape:color="rgb(0,0,255)" />
    <sodipodi:guide
       position="183.23145,-93.597863"
       orientation="0,1"
       id="guide1279"
       inkscape:locked="false" />
  </sodipodi:namedview>
  <metadata
     id="metadata4668">
    <rdf:RDF>
      <cc:Work
         rdf:about="">
        <dc:format>image/svg+xml</dc:format>
        <dc:type
           rdf:resource="http://purl.org/dc/dcmitype/StillImage" />
        <dc:title></dc:title>
      </cc:Work>
    </rdf:RDF>
  </metadata>
  <g
     inkscape:label="Layer 1"
     inkscape:groupmode="layer"
     id="layer1"
     transform="translate(0,-58.874992)">
    <rect
       style="opacity:1;fill:#72674b;fill-opacity:1;fill-rule:nonzero;stroke:none;stroke-width:0.9346683;stroke-linecap:butt;stroke-linejoin:bevel;stroke-miterlimit:4;stroke-dasharray:none;stroke-opacity:1"
       id="rect5236"
       width="423.33331"
       height="208.02715"
       x="0"
       y="58.874992" />
    <g
       id="g921">
      <rect
         y="58.864193"
         x="0"
         height="26.458334"
         width="423.33331"
         id="rect5216"
         style="opacity:1;fill:#406b8e;fill-opacity:1;fill-rule:nonzero;stroke:none;stroke-width:1.00020421;stroke-linecap:butt;stroke-linejoin:bevel;stroke-miterlimit:4;stroke-dasharray:none;stroke-opacity:1" />
      <text
         id="text5222"
         y="78.416954"
         x="97.606445"
         style="font-style:normal;font-variant:normal;font-weight:normal;font-stretch:normal;font-size:16.93333244px;line-height:1.25;font-family:'DejaVu Sans Mono';-inkscape-font-specification:'DejaVu Sans Mono';letter-spacing:0px;word-spacing:0px;fill:#ffffff;fill-opacity:1;stroke:none;stroke-width:0.26458332"
         xml:space="preserve"><tspan
           style="font-style:normal;font-variant:normal;font-weight:normal;font-stretch:normal;font-family:'DejaVu Sans Mono';-inkscape-font-specification:'DejaVu Sans Mono';fill:#ffffff;fill-opacity:1;stroke-width:0.26458332"
           y="78.416954"
           x="97.606445"
           id="tspan5220"
           sodipodi:role="line">code:sub</tspan></text>
    </g>
    <g
       id="g5610"
       transform="translate(9.9999758e-7,3.2635817e-6)" />
    <g
       transform="translate(1.7529297e-6,13.22917)"
       id="g5610-6" />
    <g
       id="g926">
      <rect
         y="85.322525"
         x="-8.8817842e-16"
         height="9.260417"
         width="423.33328"
         id="rect4671"
         style="opacity:1;fill:#7fa7c7;fill-opacity:1;fill-rule:nonzero;stroke:none;stroke-width:0.25676632;stroke-linecap:butt;stroke-linejoin:miter;stroke-miterlimit:4;stroke-dasharray:none;stroke-opacity:1" />
      <text
         id="text935"
         y="90.936775"
         x="293.04221"
         style="font-style:normal;font-variant:normal;font-weight:normal;font-stretch:normal;font-size:3.52777791px;line-height:1.25;font-family:Roboto;-inkscape-font-specification:Roboto;text-align:end;letter-spacing:0px;word-spacing:0px;text-anchor:end;fill:#ffffff;fill-opacity:1;stroke:none;stroke-width:0.26458332"
         xml:space="preserve"><tspan
           id="tspan949"
           style="font-style:normal;font-variant:normal;font-weight:normal;font-stretch:normal;font-size:3.52777791px;font-family:'DejaVu Sans';-inkscape-font-specification:'DejaVu Sans';text-align:end;text-anchor:end;fill:#ffffff;fill-opacity:1;stroke-width:0.26458332"
           y="90.936775"
           x="293.04221"
           sodipodi:role="line">logged in as</tspan></text>
    </g>
    <g
       id="g1000">
      <rect
         y="94.582939"
         x="92.604164"
         height="172.3192"
         width="238.125"
         id="rect5218"
         style="opacity:1;fill:#e8f1d0;fill-opacity:1;fill-rule:nonzero;stroke:none;stroke-width:1.11924124;stroke-linecap:butt;stroke-linejoin:bevel;stroke-miterlimit:4;stroke-dasharray:none;stroke-opacity:1" />
      <text
         id="text935-3-7-2"
         y="90.818314"
         x="160.56702"
         style="font-style:normal;font-variant:normal;font-weight:normal;font-stretch:normal;font-size:3.52777791px;line-height:1.25;font-family:Roboto;-inkscape-font-specification:Roboto;text-align:start;text-decoration: underline;text-decoration-line: underline;letter-spacing:0px;word-spacing:0px;text-anchor:start;fill:#ffffff;fill-opacity:1;stroke:none;stroke-width:0.26458332"
         xml:space="preserve"><tspan
           id="tspan949-6-5-9"
           style="font-style:normal;font-variant:normal;font-weight:normal;font-stretch:normal;font-size:3.52777791px;font-family:'DejaVu Sans';-inkscape-font-specification:'DejaVu Sans';text-align:start;text-anchor:start;fill:#ffffff;fill-opacity:1;stroke-width:0.26458332"
           y="90.818314"
           x="160.56702"
           sodipodi:role="line">Submission History</tspan></text>
      <text
         xml:space="preserve"
         style="font-style:normal;font-variant:normal;font-weight:normal;font-stretch:normal;font-size:3.52777791px;line-height:1.25;font-family:Roboto;-inkscape-font-specification:Roboto;text-align:start;text-decoration: underline;text-decoration-line: underline;letter-spacing:0px;word-spacing:0px;text-anchor:start;fill:#ffffff;fill-opacity:1;stroke:none;stroke-width:0.26458332"
         x="196.54988"
         y="90.818314"
         id="text1558"><tspan
           sodipodi:role="line"
           x="196.54988"
           y="90.818314"
           style="font-style:normal;font-variant:normal;font-weight:normal;font-stretch:normal;font-size:3.52777791px;font-family:'DejaVu Sans';-inkscape-font-specification:'DejaVu Sans';text-align:start;text-anchor:start;fill:#ffffff;fill-opacity:1;stroke-width:0.26458332"
           id="tspan1556">wilfried-135131</tspan></text>
      <text
         xml:space="preserve"
         style="font-style:normal;font-variant:normal;font-weight:normal;font-stretch:normal;font-size:12.69999981px;line-height:1.25;font-family:Roboto;-inkscape-font-specification:Roboto;letter-spacing:0px;word-spacing:0px;fill:#000000;fill-opacity:1;stroke:none;stroke-width:0.26458332"
         x="99.710762"
         y="110.25742"
         id="text5242-7"><tspan
           sodipodi:role="line"
           id="tspan5240-5"
           x="99.710762"
           y="110.25742"
           style="font-style:normal;font-variant:normal;font-weight:normal;font-stretch:normal;font-size:12.69999981px;font-family:'DejaVu Sans';-inkscape-font-specification:'DejaVu Sans';stroke-width:0.26458332">Taak 1: Matrixvermenigvuldiging</tspan></text>
      <text
         xml:space="preserve"
         style="font-style:normal;font-variant:normal;font-weight:normal;font-stretch:normal;font-size:12.69999981px;line-height:1.25;font-family:Roboto;-inkscape-font-specification:Roboto;letter-spacing:0px;word-spacing:0px;fill:#000000;fill-opacity:1;stroke:none;stroke-width:0.26458332"
         x="98.954155"
         y="125.28537"
         id="text6674"><tspan
           id="tspan6672"
           sodipodi:role="line"
           x="98.954155"
           y="125.28537"
           style="font-style:normal;font-variant:normal;font-weight:normal;font-stretch:normal;font-size:8.46666622px;font-family:'DejaVu Sans';-inkscape-font-specification:'DejaVu Sans';stroke-width:0.26458332">Submission History: wilfried-135131</tspan></text>
      <g
         id="g1530"
         transform="translate(0.40834591,5.1623052)">
        <g
           transform="translate(1.0000014e-6,37.041674)"
           id="g1516">
          <g
             id="g1514" />
        </g>
        <g
           id="g1594">
          <g
             id="g1049-7"
             transform="translate(0,6.6145761)">
            <g
               transform="translate(1.0000014e-6,37.041674)"
               id="g5302-9-9">
              <g
                 id="g5274-6-2">
                <rect
                   y="111.79166"
                   x="99.218773"
                   height="19.579166"
                   width="19.579166"
                   id="rect5252-0-0"
                   style="opacity:1;fill:#040404;fill-opacity:1;fill-rule:nonzero;stroke:none;stroke-width:0.73999995;stroke-linecap:butt;stroke-linejoin:miter;stroke-miterlimit:4;stroke-dasharray:none;stroke-opacity:1" />
                <rect
                   y="112.32082"
                   x="99.74794"
                   height="18.520834"
                   width="18.520834"
                   id="rect5270-7-2"
                   style="opacity:1;fill:#ff8c8c;fill-opacity:1;fill-rule:nonzero;stroke:none;stroke-width:0.87081027;stroke-linecap:butt;stroke-linejoin:miter;stroke-miterlimit:4;stroke-dasharray:none;stroke-opacity:1" />
              </g>
            </g>
            <rect
               y="148.83333"
               x="120.12085"
               height="19.579163"
               width="203.99374"
               id="rect5359-7-2"
               style="opacity:1;fill:#ffffff;fill-opacity:1;fill-rule:nonzero;stroke:none;stroke-width:0.89634597;stroke-linecap:butt;stroke-linejoin:miter;stroke-miterlimit:4;stroke-dasharray:none;stroke-opacity:1" />
            <g
               id="g5475-9-8"
               transform="translate(-7.0045567,38.392111)">
              <text
                 xml:space="preserve"
                 style="font-style:normal;font-variant:normal;font-weight:normal;font-stretch:normal;font-size:8.28542328px;line-height:1.25;font-family:Roboto;-inkscape-font-specification:Roboto;letter-spacing:0px;word-spacing:0px;fill:#000000;fill-opacity:1;stroke:none;stroke-width:0.25891945"
                 x="132.09343"
                 y="123.29738"
                 id="text5396-9-3"><tspan
                   sodipodi:role="line"
                   id="tspan5394-4-6"
                   x="132.09343"
                   y="123.29738"
                   style="font-size:8.28542328px;stroke-width:0.25891945">Taak 1: Matrixvermenigvuldiging</tspan></text>
            </g>
            <text
               id="text5508-5-9"
               y="161.79791"
               x="318.80432"
               style="font-style:normal;font-variant:normal;font-weight:normal;font-stretch:normal;font-size:16.93333244px;line-height:1.25;font-family:Roboto;-inkscape-font-specification:Roboto;text-align:end;letter-spacing:0px;word-spacing:0px;text-anchor:end;fill:#000000;fill-opacity:1;stroke:none;stroke-width:0.26458332"
               xml:space="preserve"><tspan
                 style="font-size:4.23333359px;text-align:end;text-anchor:end;stroke-width:0.26458332"
                 y="161.79791"
                 x="318.80432"
                 id="tspan5506-1-3"
                 sodipodi:role="line">test failed</tspan></text>
          </g>
          <g
             transform="translate(0,6.6145761)"
             id="g1508">
            <g
               id="g1494"
               transform="translate(1.0000014e-6,37.041674)">
              <g
                 id="g1492">
                <rect
                   style="opacity:1;fill:#040404;fill-opacity:1;fill-rule:nonzero;stroke:none;stroke-width:0.73999995;stroke-linecap:butt;stroke-linejoin:miter;stroke-miterlimit:4;stroke-dasharray:none;stroke-opacity:1"
                   id="rect1488"
                   width="19.579166"
                   height="19.579166"
                   x="99.218773"
                   y="132.69374" />
                <rect
                   style="opacity:1;fill:#ff8c8c;fill-opacity:1;fill-rule:nonzero;stroke:none;stroke-width:0.87081027;stroke-linecap:butt;stroke-linejoin:miter;stroke-miterlimit:4;stroke-dasharray:none;stroke-opacity:1"
                   id="rect1490"
                   width="18.520834"
                   height="18.520834"
                   x="99.74794"
                   y="133.2229" />
              </g>
            </g>
            <rect
               style="opacity:1;fill:#ffffff;fill-opacity:1;fill-rule:nonzero;stroke:none;stroke-width:0.89634597;stroke-linecap:butt;stroke-linejoin:miter;stroke-miterlimit:4;stroke-dasharray:none;stroke-opacity:1"
               id="rect1496"
               width="203.99374"
               height="19.579163"
               x="120.12085"
               y="169.73541" />
            <g
               transform="translate(-7.0045567,59.294194)"
               id="g1502">
              <text
                 id="text1500"
                 y="123.29738"
                 x="132.09343"
                 style="font-style:normal;font-variant:normal;font-weight:normal;font-stretch:normal;font-size:8.28542328px;line-height:1.25;font-family:Roboto;-inkscape-font-specification:Roboto;letter-spacing:0px;word-spacing:0px;fill:#000000;fill-opacity:1;stroke:none;stroke-width:0.25891945"
                 xml:space="preserve"><tspan
                   style="font-size:8.28542328px;stroke-width:0.25891945"
                   y="123.29738"
                   x="132.09343"
                   id="tspan1498"
                   sodipodi:role="line">Taak 1: Matrixvermenigvuldiging</tspan></text>
            </g>
            <text
               xml:space="preserve"
               style="font-style:normal;font-variant:normal;font-weight:normal;font-stretch:normal;font-size:16.93333244px;line-height:1.25;font-family:Roboto;-inkscape-font-specification:Roboto;letter-spacing:0px;word-spacing:0px;fill:#000000;fill-opacity:1;stroke:none;stroke-width:0.26458332"
               x="318.80432"
               y="182.7"
               id="text1506"><tspan
                 sodipodi:role="line"
                 id="tspan1504"
                 x="318.80432"
                 y="182.7"
                 style="font-size:4.23333359px;text-align:end;text-anchor:end;stroke-width:0.26458332">tests failed</tspan></text>
          </g>
          <g
             id="g1117"
             transform="translate(0,-14.287503)">
            <rect
               transform="translate(1.0000015e-6,37.041673)"
               y="111.79166"
               x="99.218773"
               height="19.579166"
               width="19.579166"
               id="rect1510"
               style="opacity:1;fill:#040404;fill-opacity:1;fill-rule:nonzero;stroke:none;stroke-width:0.73999995;stroke-linecap:butt;stroke-linejoin:miter;stroke-miterlimit:4;stroke-dasharray:none;stroke-opacity:1" />
            <rect
               y="149.3625"
               x="99.74794"
               height="18.520834"
               width="18.520834"
               id="rect1512"
               style="opacity:1;fill:#ffff8c;fill-opacity:1;fill-rule:nonzero;stroke:none;stroke-width:0.87081027;stroke-linecap:butt;stroke-linejoin:miter;stroke-miterlimit:4;stroke-dasharray:none;stroke-opacity:1" />
            <rect
               y="148.83333"
               x="120.12085"
               height="19.579163"
               width="203.99374"
               id="rect1518"
               style="opacity:1;fill:#ffffff;fill-opacity:1;fill-rule:nonzero;stroke:none;stroke-width:0.89634597;stroke-linecap:butt;stroke-linejoin:miter;stroke-miterlimit:4;stroke-dasharray:none;stroke-opacity:1" />
            <g
               id="g1524"
               transform="translate(-7.0045567,38.392111)">
              <text
                 xml:space="preserve"
                 style="font-style:normal;font-variant:normal;font-weight:normal;font-stretch:normal;font-size:8.28542328px;line-height:1.25;font-family:Roboto;-inkscape-font-specification:Roboto;letter-spacing:0px;word-spacing:0px;fill:#000000;fill-opacity:1;stroke:none;stroke-width:0.25891945"
                 x="132.09343"
                 y="123.29738"
                 id="text1522"><tspan
                   sodipodi:role="line"
                   id="tspan1520"
                   x="132.09343"
                   y="123.29738"
                   style="font-size:8.28542328px;stroke-width:0.25891945">Taak 1: Matrixvermenigvuldiging</tspan></text>
            </g>
            <text
               id="text1528"
               y="161.79791"
               x="318.80432"
               style="font-style:normal;font-variant:normal;font-weight:normal;font-stretch:normal;font-size:16.93333244px;line-height:1.25;font-family:Roboto;-inkscape-font-specification:Roboto;letter-spacing:0px;word-spacing:0px;fill:#000000;fill-opacity:1;stroke:none;stroke-width:0.26458332"
               xml:space="preserve"><tspan
                 style="font-size:4.23333359px;text-align:end;text-anchor:end;stroke-width:0.26458332"
                 y="161.79791"
                 x="318.80432"
                 id="tspan1526"
                 sodipodi:role="line">in pipeline</tspan></text>
          </g>
        </g>
      </g>
    </g>
    <text
       xml:space="preserve"
       style="font-style:normal;font-variant:normal;font-weight:normal;font-stretch:normal;font-size:16.93333244px;line-height:1.25;font-family:Roboto;-inkscape-font-specification:Roboto;text-decoration: underline;text-decoration-line: underline;letter-spacing:0px;word-spacing:0px;fill:#ffffff;fill-opacity:1;stroke:none;stroke-width:0.26458332"
       x="294.35068"
       y="90.928162"
       id="text957"><tspan
         sodipodi:role="line"
         id="tspan955"
         x="294.35068"
         y="90.928162"
         style="font-size:3.52777791px;fill:#ffffff;fill-opacity:1;stroke-width:0.26458332">Wilfried Van Groen</tspan></text>
    <text
       id="text935-3-3-7-2"
       y="90.827385"
       x="99.285538"
       style="font-style:normal;font-variant:normal;font-weight:normal;font-stretch:normal;font-size:3.52777791px;line-height:1.25;font-family:Roboto;-inkscape-font-specification:Roboto;text-align:start;letter-spacing:0px;word-spacing:0px;text-anchor:start;fill:#ffffff;fill-opacity:1;stroke:none;stroke-width:0.26458332"
       xml:space="preserve"><tspan
         id="tspan949-6-6-5-7"
         style="font-style:normal;font-variant:normal;font-weight:normal;font-stretch:normal;font-size:3.52777791px;font-family:'DejaVu Sans';-inkscape-font-specification:'DejaVu Sans';text-align:start;text-anchor:start;fill:#ffffff;fill-opacity:1;stroke-width:0.26458332"
         y="90.827385"
         x="99.285538"
         sodipodi:role="line">/</tspan></text>
    <text
       id="text935-3-7-3-9-0"
       y="90.827385"
       x="101.00671"
       style="font-style:normal;font-variant:normal;font-weight:normal;font-stretch:normal;font-size:3.52777791px;line-height:1.25;font-family:Roboto;-inkscape-font-specification:Roboto;text-align:start;text-decoration: underline;text-decoration-line: underline;letter-spacing:0px;word-spacing:0px;text-anchor:start;fill:#ffffff;fill-opacity:1;stroke:none;stroke-width:0.26458332"
       xml:space="preserve"><tspan
         id="tspan949-6-5-6-1-9"
         style="font-style:normal;font-variant:normal;font-weight:normal;font-stretch:normal;font-size:3.52777791px;font-family:'DejaVu Sans';-inkscape-font-specification:'DejaVu Sans';text-align:start;text-anchor:start;fill:#ffffff;fill-opacity:1;stroke-width:0.26458332"
         y="90.827385"
         x="101.00671"
         sodipodi:role="line">Taak 1: Matrixvermenigvuldiging</tspan></text>
    <text
       id="text935-3-3-7-2-3"
       y="90.945312"
       x="158.99744"
       style="font-style:normal;font-variant:normal;font-weight:normal;font-stretch:normal;font-size:3.52777791px;line-height:1.25;font-family:Roboto;-inkscape-font-specification:Roboto;text-align:start;letter-spacing:0px;word-spacing:0px;text-anchor:start;fill:#ffffff;fill-opacity:1;stroke:none;stroke-width:0.26458332"
       xml:space="preserve"><tspan
         id="tspan949-6-6-5-7-6"
         style="font-style:normal;font-variant:normal;font-weight:normal;font-stretch:normal;font-size:3.52777791px;font-family:'DejaVu Sans';-inkscape-font-specification:'DejaVu Sans';text-align:start;text-anchor:start;fill:#ffffff;fill-opacity:1;stroke-width:0.26458332"
         y="90.945312"
         x="158.99744"
         sodipodi:role="line">/</tspan></text>
    <text
       xml:space="preserve"
       style="font-style:normal;font-variant:normal;font-weight:normal;font-stretch:normal;font-size:3.52777791px;line-height:1.25;font-family:Roboto;-inkscape-font-specification:Roboto;text-align:start;letter-spacing:0px;word-spacing:0px;text-anchor:start;fill:#ffffff;fill-opacity:1;stroke:none;stroke-width:0.26458332"
       x="194.98029"
       y="90.945312"
       id="text1554"><tspan
         sodipodi:role="line"
         x="194.98029"
         y="90.945312"
         style="font-style:normal;font-variant:normal;font-weight:normal;font-stretch:normal;font-size:3.52777791px;font-family:'DejaVu Sans';-inkscape-font-specification:'DejaVu Sans';text-align:start;text-anchor:start;fill:#ffffff;fill-opacity:1;stroke-width:0.26458332"
         id="tspan1552">/</tspan></text>
  </g>
</svg>
