<?xml version="1.0" encoding="UTF-8" standalone="no"?>
<!-- Created with Inkscape (http://www.inkscape.org/) -->

<svg
   xmlns:dc="http://purl.org/dc/elements/1.1/"
   xmlns:cc="http://creativecommons.org/ns#"
   xmlns:rdf="http://www.w3.org/1999/02/22-rdf-syntax-ns#"
   xmlns:svg="http://www.w3.org/2000/svg"
   xmlns="http://www.w3.org/2000/svg"
   xmlns:sodipodi="http://sodipodi.sourceforge.net/DTD/sodipodi-0.dtd"
   xmlns:inkscape="http://www.inkscape.org/namespaces/inkscape"
   width="1600"
   height="1495"
   viewBox="0 0 423.33332 395.5521"
   version="1.1"
   id="svg4671"
   inkscape:version="0.92.2 5c3e80d, 2017-08-06"
   sodipodi:docname="submission_done.svg">
  <defs
     id="defs4665">
    <clipPath
       clipPathUnits="userSpaceOnUse"
       id="clipPath2094">
      <text
         xml:space="preserve"
         style="font-style:normal;font-variant:normal;font-weight:normal;font-stretch:normal;font-size:4.23333311px;line-height:125%;font-family:'Liberation Sans';-inkscape-font-specification:'Liberation Sans';letter-spacing:0px;word-spacing:0px;fill:#000000;fill-opacity:1;stroke:none;stroke-width:0.26458332"
         x="99.747917"
         y="215.66544"
         id="text2154"><tspan
           sodipodi:role="line"
           id="tspan2096"
           x="99.747917"
           y="215.66544"
           style="stroke-width:0.26458332">  CC       libalpm_la-remove.lo</tspan><tspan
           sodipodi:role="line"
           x="99.747917"
           y="220.95711"
           style="stroke-width:0.26458332"
           id="tspan2098">  CC       libalpm_la-signing.lo</tspan><tspan
           sodipodi:role="line"
           x="99.747917"
           y="226.24876"
           style="stroke-width:0.26458332"
           id="tspan2100">  CC       libalpm_la-sync.lo</tspan><tspan
           sodipodi:role="line"
           x="99.747917"
           y="231.54044"
           style="stroke-width:0.26458332"
           id="tspan2102">  CC       libalpm_la-trans.lo</tspan><tspan
           sodipodi:role="line"
           x="99.747917"
           y="236.83211"
           style="stroke-width:0.26458332"
           id="tspan2104">  CC       libalpm_la-util.lo</tspan><tspan
           sodipodi:role="line"
           x="99.747917"
           y="242.12376"
           style="stroke-width:0.26458332"
           id="tspan2106">  CC       libalpm_la-util-common.lo</tspan><tspan
           sodipodi:role="line"
           x="99.747917"
           y="247.41544"
           style="stroke-width:0.26458332"
           id="tspan2108">  CC       libalpm_la-version.lo</tspan><tspan
           sodipodi:role="line"
           x="99.747917"
           y="252.70711"
           style="stroke-width:0.26458332"
           id="tspan2110">  CCLD     libalpm.la</tspan><tspan
           sodipodi:role="line"
           x="99.747917"
           y="257.99878"
           style="stroke-width:0.26458332"
           id="tspan2112">Making all in src/util</tspan><tspan
           sodipodi:role="line"
           x="99.747917"
           y="263.29044"
           style="stroke-width:0.26458332"
           id="tspan2114">  CC       vercmp.o</tspan><tspan
           sodipodi:role="line"
           x="99.747917"
           y="268.58209"
           style="stroke-width:0.26458332"
           id="tspan2116">  CCLD     vercmp</tspan><tspan
           sodipodi:role="line"
           x="99.747917"
           y="273.87378"
           style="stroke-width:0.26458332"
           id="tspan2118">  CC       testpkg.o</tspan><tspan
           sodipodi:role="line"
           x="99.747917"
           y="279.16544"
           style="stroke-width:0.26458332"
           id="tspan2120">  CCLD     testpkg</tspan><tspan
           sodipodi:role="line"
           x="99.747917"
           y="284.45709"
           style="stroke-width:0.26458332"
           id="tspan2122">  CC       cleanupdelta.o</tspan><tspan
           sodipodi:role="line"
           x="99.747917"
           y="289.74878"
           style="stroke-width:0.26458332"
           id="tspan2124">  CCLD     cleanupdelta</tspan><tspan
           sodipodi:role="line"
           x="99.747917"
           y="295.04044"
           style="stroke-width:0.26458332"
           id="tspan2126">Making all in src/pacman</tspan><tspan
           sodipodi:role="line"
           x="99.747917"
           y="300.33209"
           style="stroke-width:0.26458332"
           id="tspan2128">Making all in po</tspan><tspan
           sodipodi:role="line"
           x="99.747917"
           y="305.62378"
           style="stroke-width:0.26458332"
           id="tspan2130">make[3]: Nothing to be done for 'all'.</tspan><tspan
           sodipodi:role="line"
           x="99.747917"
           y="310.91544"
           style="stroke-width:0.26458332"
           id="tspan2132">  CC       check.o</tspan><tspan
           sodipodi:role="line"
           x="99.747917"
           y="316.20709"
           style="stroke-width:0.26458332"
           id="tspan2134">  CC       conf.o</tspan><tspan
           sodipodi:role="line"
           x="99.747917"
           y="321.49875"
           style="stroke-width:0.26458332"
           id="tspan2136">  CC       database.o</tspan><tspan
           sodipodi:role="line"
           x="99.747917"
           y="326.79044"
           style="stroke-width:0.26458332"
           id="tspan2138">  CC       deptest.o</tspan><tspan
           sodipodi:role="line"
           x="99.747917"
           y="332.08209"
           style="stroke-width:0.26458332"
           id="tspan2140">  CC       files.o</tspan><tspan
           sodipodi:role="line"
           x="99.747917"
           y="337.37375"
           style="stroke-width:0.26458332"
           id="tspan2142">  CC       ini.o</tspan><tspan
           sodipodi:role="line"
           x="99.747917"
           y="342.66544"
           style="stroke-width:0.26458332"
           id="tspan2144">  CC       package.o</tspan><tspan
           sodipodi:role="line"
           x="99.747917"
           y="347.95709"
           style="stroke-width:0.26458332"
           id="tspan2146">  CC       pacman.o</tspan><tspan
           sodipodi:role="line"
           x="99.747917"
           y="353.24875"
           style="stroke-width:0.26458332"
           id="tspan2148">  CC       query.o</tspan><tspan
           sodipodi:role="line"
           x="99.747917"
           y="358.54044"
           style="stroke-width:0.26458332"
           id="tspan2150">  CC       remove.o</tspan><tspan
           sodipodi:role="line"
           x="99.747917"
           y="363.83209"
           style="stroke-width:0.26458332"
           id="tspan2152">  CC       sighandler.o</tspan></text>
    </clipPath>
  </defs>
  <sodipodi:namedview
     id="base"
     pagecolor="#ffffff"
     bordercolor="#666666"
     borderopacity="1.0"
     inkscape:pageopacity="0.0"
     inkscape:pageshadow="2"
     inkscape:zoom="0.41531252"
     inkscape:cx="620.15895"
     inkscape:cy="801.3763"
     inkscape:document-units="px"
     inkscape:current-layer="g1011"
     showgrid="false"
     units="px"
     inkscape:snap-bbox="true"
     inkscape:bbox-paths="true"
     inkscape:bbox-nodes="true"
     inkscape:snap-bbox-midpoints="true"
     inkscape:snap-bbox-edge-midpoints="true"
     inkscape:object-paths="true"
     inkscape:snap-intersection-paths="true"
     inkscape:object-nodes="true"
     inkscape:snap-midpoints="true"
     inkscape:snap-smooth-nodes="true"
     inkscape:snap-object-midpoints="true"
     inkscape:snap-center="true"
     inkscape:snap-text-baseline="true"
     inkscape:snap-page="true"
     showguides="false"
     inkscape:guide-bbox="true"
     inkscape:measure-start="790,826"
     inkscape:measure-end="790,886"
     inkscape:window-width="1920"
     inkscape:window-height="1025"
     inkscape:window-x="0"
     inkscape:window-y="27"
     inkscape:window-maximized="1"
     fit-margin-top="0"
     fit-margin-left="0"
     fit-margin-right="0"
     fit-margin-bottom="0">
    <sodipodi:guide
       position="92.604168,157.41628"
       orientation="1,0"
       id="guide5224"
       inkscape:locked="false"
       inkscape:label=""
       inkscape:color="rgb(0,0,255)" />
    <sodipodi:guide
       position="331.10047,143.22626"
       orientation="1,0"
       id="guide5226"
       inkscape:locked="false" />
    <sodipodi:guide
       position="8.8817843e-16,369.09376"
       orientation="0,1"
       id="guide5228"
       inkscape:locked="false" />
    <sodipodi:guide
       position="8.8817843e-16,382.31212"
       orientation="0,1"
       id="guide5230"
       inkscape:locked="false"
       inkscape:label=""
       inkscape:color="rgb(0,0,255)" />
    <sodipodi:guide
       position="99.218752,346.06878"
       orientation="1,0"
       id="guide5232"
       inkscape:locked="false"
       inkscape:label=""
       inkscape:color="rgb(0,0,255)" />
    <sodipodi:guide
       position="324.11459,395.5413"
       orientation="1,0"
       id="guide5234"
       inkscape:locked="false"
       inkscape:label=""
       inkscape:color="rgb(0,0,255)" />
    <sodipodi:guide
       position="211.66665,369.08297"
       orientation="1,0"
       id="guide5601"
       inkscape:locked="false" />
    <sodipodi:guide
       position="209.02083,253.98919"
       orientation="1,0"
       id="guide5603"
       inkscape:locked="false"
       inkscape:label=""
       inkscape:color="rgb(0,0,255)" />
    <sodipodi:guide
       position="214.3125,253.9892"
       orientation="1,0"
       id="guide5605"
       inkscape:locked="false"
       inkscape:label=""
       inkscape:color="rgb(0,0,255)" />
    <sodipodi:guide
       position="99.218748,375.99934"
       orientation="0,1"
       id="guide937"
       inkscape:locked="false" />
    <sodipodi:guide
       position="92.604165,364.45275"
       orientation="0,1"
       id="guide916"
       inkscape:locked="false"
       inkscape:label=""
       inkscape:color="rgb(0,0,255)" />
    <sodipodi:guide
       position="99.218752,35.735819"
       orientation="1,0"
       id="guide909"
       inkscape:locked="false" />
    <sodipodi:guide
       position="291.61899,363.47952"
       orientation="0,1"
       id="guide994"
       inkscape:locked="false" />
    <sodipodi:guide
       position="105.83333,337.88858"
       orientation="1,0"
       id="guide1136"
       inkscape:locked="false"
       inkscape:label=""
       inkscape:color="rgb(0,0,255)" />
    <sodipodi:guide
       position="105.83333,343.94754"
       orientation="0,1"
       id="guide1138"
       inkscape:locked="false"
       inkscape:label=""
       inkscape:color="rgb(0,0,255)" />
    <sodipodi:guide
       position="112.44789,220.91628"
       orientation="1,0"
       id="guide1274"
       inkscape:locked="false" />
    <sodipodi:guide
       position="120.12083,247.37461"
       orientation="1,0"
       id="guide1454"
       inkscape:locked="false"
       inkscape:label=""
       inkscape:color="rgb(0,0,255)" />
    <sodipodi:guide
       position="125.4125,237.58503"
       orientation="1,0"
       id="guide1460"
       inkscape:locked="false"
       inkscape:label=""
       inkscape:color="rgb(0,0,255)" />
    <sodipodi:guide
       position="318.8229,284.41629"
       orientation="1,0"
       id="guide1464"
       inkscape:locked="false" />
    <sodipodi:guide
       position="99.218748,301.61421"
       orientation="0,1"
       id="guide1074"
       inkscape:locked="false"
       inkscape:label=""
       inkscape:color="rgb(0,0,255)" />
    <sodipodi:guide
       position="99.218748,333.36421"
       orientation="0,1"
       id="guide897"
       inkscape:locked="false" />
    <sodipodi:guide
       position="125.4125,246.31628"
       orientation="0,1"
       id="guide925"
       inkscape:locked="false"
       inkscape:label=""
       inkscape:color="rgb(0,0,255)" />
    <sodipodi:guide
       position="125.4125,235.73294"
       orientation="0,1"
       id="guide927"
       inkscape:locked="false"
       inkscape:label=""
       inkscape:color="rgb(0,0,255)" />
    <sodipodi:guide
       position="99.218752,309.8163"
       orientation="0,1"
       id="guide2169"
       inkscape:locked="false" />
    <sodipodi:guide
       position="99.218748,161.64961"
       orientation="0,1"
       id="guide2192"
       inkscape:locked="false"
       inkscape:label=""
       inkscape:color="rgb(0,0,255)" />
    <sodipodi:guide
       position="106.3625,135.98502"
       orientation="1,0"
       id="guide970"
       inkscape:locked="false"
       inkscape:label=""
       inkscape:color="rgb(0,0,255)" />
    <sodipodi:guide
       position="106.3625,151.06628"
       orientation="0,1"
       id="guide1129"
       inkscape:locked="false"
       inkscape:label=""
       inkscape:color="rgb(0,0,255)" />
    <sodipodi:guide
       position="211.66664,151.06628"
       orientation="0,1"
       id="guide1131"
       inkscape:locked="false" />
    <sodipodi:guide
       position="224.28862,143.13089"
       orientation="0,1"
       id="guide1133"
       inkscape:locked="false"
       inkscape:label=""
       inkscape:color="rgb(0,0,255)" />
    <sodipodi:guide
       position="211.66664,132.54756"
       orientation="0,1"
       id="guide1153"
       inkscape:locked="false"
       inkscape:label=""
       inkscape:color="rgb(0,0,255)" />
    <sodipodi:guide
       position="209.02082,72.222563"
       orientation="0,1"
       id="guide1292"
       inkscape:locked="false"
       inkscape:label=""
       inkscape:color="rgb(0,0,255)" />
    <sodipodi:guide
       position="99.218748,17.187109"
       orientation="0,1"
       inkscape:locked="false"
       id="guide1356"
       inkscape:label=""
       inkscape:color="rgb(0,0,255)" />
  </sodipodi:namedview>
  <metadata
     id="metadata4668">
    <rdf:RDF>
      <cc:Work
         rdf:about="">
        <dc:format>image/svg+xml</dc:format>
        <dc:type
           rdf:resource="http://purl.org/dc/dcmitype/StillImage" />
        <dc:title />
      </cc:Work>
    </rdf:RDF>
  </metadata>
  <g
     inkscape:label="Layer 1"
     inkscape:groupmode="layer"
     id="layer1"
     transform="translate(0,-58.864193)">
    <rect
       style="opacity:1;fill:#72674b;fill-opacity:1;fill-rule:nonzero;stroke:none;stroke-width:1.28882349;stroke-linecap:butt;stroke-linejoin:bevel;stroke-miterlimit:4;stroke-dasharray:none;stroke-opacity:1"
       id="rect5236"
       width="423.33331"
       height="395.54129"
       x="0"
       y="58.874992" />
    <g
       id="g921">
      <rect
         y="58.864193"
         x="0"
         height="26.458334"
         width="423.33331"
         id="rect5216"
         style="opacity:1;fill:#406b8e;fill-opacity:1;fill-rule:nonzero;stroke:none;stroke-width:1.00020421;stroke-linecap:butt;stroke-linejoin:bevel;stroke-miterlimit:4;stroke-dasharray:none;stroke-opacity:1" />
      <text
         id="text5222"
         y="78.416954"
         x="97.606445"
         style="font-style:normal;font-variant:normal;font-weight:normal;font-stretch:normal;font-size:16.93333244px;line-height:1.25;font-family:'DejaVu Sans Mono';-inkscape-font-specification:'DejaVu Sans Mono';letter-spacing:0px;word-spacing:0px;fill:#ffffff;fill-opacity:1;stroke:none;stroke-width:0.26458332"
         xml:space="preserve"><tspan
           style="font-style:normal;font-variant:normal;font-weight:normal;font-stretch:normal;font-family:'DejaVu Sans Mono';-inkscape-font-specification:'DejaVu Sans Mono';fill:#ffffff;fill-opacity:1;stroke-width:0.26458332"
           y="78.416954"
           x="97.606445"
           id="tspan5220"
           sodipodi:role="line">code:sub</tspan></text>
    </g>
    <g
       id="g5610"
       transform="translate(9.9999758e-7,3.2635817e-6)" />
    <g
       transform="translate(1.7529297e-6,13.22917)"
       id="g5610-6" />
    <g
       id="g1000">
      <rect
         y="94.582939"
         x="92.604164"
         height="359.83334"
         width="238.125"
         id="rect5218"
         style="opacity:1;fill:#e8f1d0;fill-opacity:1;fill-rule:nonzero;stroke:none;stroke-width:1.61736333;stroke-linecap:butt;stroke-linejoin:bevel;stroke-miterlimit:4;stroke-dasharray:none;stroke-opacity:1" />
      <text
         id="text5242"
         y="110.46874"
         x="105.83333"
         style="font-style:normal;font-variant:normal;font-weight:normal;font-stretch:normal;font-size:12.69999981px;line-height:1.25;font-family:Roboto;-inkscape-font-specification:Roboto;letter-spacing:0px;word-spacing:0px;fill:#000000;fill-opacity:1;stroke:none;stroke-width:0.26458332"
         xml:space="preserve"><tspan
           style="font-style:normal;font-variant:normal;font-weight:normal;font-stretch:normal;font-size:12.69999981px;font-family:'DejaVu Sans';-inkscape-font-specification:'DejaVu Sans';stroke-width:0.26458332"
           y="110.46874"
           x="105.83333"
           id="tspan5240"
           sodipodi:role="line">Submission Details</tspan></text>
      <g
         transform="translate(1.0018299e-6,-63.499998)"
         id="g1011">
        <g
           id="g908"
           transform="translate(3.2769861e-6,23.547911)">
          <rect
             style="opacity:1;fill:#ffffff;fill-opacity:1;fill-rule:nonzero;stroke:none;stroke-width:0.42551884;stroke-linecap:butt;stroke-linejoin:miter;stroke-miterlimit:4;stroke-dasharray:none;stroke-opacity:1"
             id="rect1207"
             width="224.89583"
             height="42.333332"
             x="99.21875"
             y="184.55206" />
          <text
             xml:space="preserve"
             style="font-style:normal;font-variant:normal;font-weight:normal;font-stretch:normal;font-size:4.23333311px;line-height:1.25;font-family:Roboto;-inkscape-font-specification:Roboto;letter-spacing:0px;word-spacing:0px;fill:#000000;fill-opacity:1;stroke:none;stroke-width:0.26458332"
             x="105.83333"
             y="200.42708"
             id="text1215"><tspan
               sodipodi:role="line"
               id="tspan1213"
               x="105.83333"
               y="200.42708"
               style="stroke-width:0.26458332"><tspan
   style="font-style:normal;font-variant:normal;font-weight:bold;font-stretch:normal;font-family:Roboto;-inkscape-font-specification:'Roboto Bold'"
   id="tspan1217">submitted on:</tspan> 1 March 2018 at 10:47</tspan></text>
          <text
             xml:space="preserve"
             style="font-style:normal;font-variant:normal;font-weight:normal;font-stretch:normal;font-size:4.23333311px;line-height:1.25;font-family:Roboto;-inkscape-font-specification:Roboto;letter-spacing:0px;word-spacing:0px;fill:#000000;fill-opacity:1;stroke:none;stroke-width:0.26458332"
             x="105.83333"
             y="207.04166"
             id="text1215-3"><tspan
               sodipodi:role="line"
               id="tspan1213-6"
               x="105.83333"
               y="207.04166"
               style="font-style:normal;font-variant:normal;font-weight:normal;font-stretch:normal;font-family:Roboto;-inkscape-font-specification:Roboto;stroke-width:0.26458332"><tspan
   style="font-style:normal;font-variant:normal;font-weight:bold;font-stretch:normal;font-family:Roboto;-inkscape-font-specification:'Roboto Bold'"
   id="tspan1242">platform:</tspan> GCC C++ on Ubuntu 16.04 LTS</tspan></text>
          <text
             xml:space="preserve"
             style="font-style:normal;font-variant:normal;font-weight:normal;font-stretch:normal;font-size:4.23333311px;line-height:1.25;font-family:Roboto;-inkscape-font-specification:Roboto;letter-spacing:0px;word-spacing:0px;fill:#000000;fill-opacity:1;stroke:none;stroke-width:0.26458332"
             x="105.83333"
             y="213.65623"
             id="text1215-3-6"><tspan
               sodipodi:role="line"
               id="tspan1213-6-2"
               x="105.83333"
               y="213.65623"
               style="font-style:normal;font-variant:normal;font-weight:normal;font-stretch:normal;font-family:Roboto;-inkscape-font-specification:Roboto;stroke-width:0.26458332"><tspan
   style="font-style:normal;font-variant:normal;font-weight:bold;font-stretch:normal;font-family:Roboto;-inkscape-font-specification:'Roboto Bold';stroke-width:0.26458332"
   id="tspan1242-6">status:</tspan> tests failed</tspan></text>
          <text
             xml:space="preserve"
             style="font-style:normal;font-variant:normal;font-weight:normal;font-stretch:normal;font-size:4.23333311px;line-height:1.25;font-family:Roboto;-inkscape-font-specification:Roboto;letter-spacing:0px;word-spacing:0px;fill:#000000;fill-opacity:1;stroke:none;stroke-width:0.26458332"
             x="105.71758"
             y="193.77115"
             id="text1215-9"><tspan
               sodipodi:role="line"
               id="tspan1213-1"
               x="105.71758"
               y="193.77115"
               style="stroke-width:0.26458332"><tspan
   style="font-style:normal;font-variant:normal;font-weight:bold;font-stretch:normal;font-family:Roboto;-inkscape-font-specification:'Roboto Bold';stroke-width:0.26458332"
   id="tspan1217-2">submitted by:</tspan> Wilfried Van Groen &lt;wilfried.van.groen@student.uhasselt.be&gt;</tspan></text>
          <text
             xml:space="preserve"
             style="font-style:normal;font-variant:normal;font-weight:normal;font-stretch:normal;font-size:4.23333311px;line-height:1.25;font-family:Roboto;-inkscape-font-specification:Roboto;letter-spacing:0px;word-spacing:0px;fill:#000000;fill-opacity:1;stroke:none;stroke-width:0.26458332"
             x="105.83333"
             y="220.27081"
             id="text1215-3-6-1"><tspan
               sodipodi:role="line"
               id="tspan1213-6-2-0"
               x="105.83333"
               y="220.27081"
               style="font-style:normal;font-variant:normal;font-weight:normal;font-stretch:normal;font-family:Roboto;-inkscape-font-specification:Roboto;stroke-width:0.26458332"><tspan
   style="font-style:normal;font-variant:normal;font-weight:bold;font-stretch:normal;font-family:Roboto;-inkscape-font-specification:'Roboto Bold';stroke-width:0.26458332"
   id="tspan1242-6-3">testing finished on:</tspan> 1 March 2018 at 11:12</tspan></text>
        </g>
        <g
           id="g1049-7"
           transform="translate(-2.0611199e-5,35.718743)">
          <g
             transform="translate(1.0000014e-6,37.041674)"
             id="g5302-9-9">
            <g
               id="g5274-6-2">
              <rect
                 y="111.79166"
                 x="99.218773"
                 height="19.579166"
                 width="19.579166"
                 id="rect5252-0-0"
                 style="opacity:1;fill:#040404;fill-opacity:1;fill-rule:nonzero;stroke:none;stroke-width:0.73999995;stroke-linecap:butt;stroke-linejoin:miter;stroke-miterlimit:4;stroke-dasharray:none;stroke-opacity:1" />
              <rect
                 y="112.32082"
                 x="99.74794"
                 height="18.520834"
                 width="18.520834"
                 id="rect5270-7-2"
                 style="opacity:1;fill:#ff8c8c;fill-opacity:1;fill-rule:nonzero;stroke:none;stroke-width:0.87081027;stroke-linecap:butt;stroke-linejoin:miter;stroke-miterlimit:4;stroke-dasharray:none;stroke-opacity:1" />
            </g>
          </g>
          <rect
             y="148.83333"
             x="120.12085"
             height="19.579163"
             width="203.99374"
             id="rect5359-7-2"
             style="opacity:1;fill:#ffffff;fill-opacity:1;fill-rule:nonzero;stroke:none;stroke-width:0.89634597;stroke-linecap:butt;stroke-linejoin:miter;stroke-miterlimit:4;stroke-dasharray:none;stroke-opacity:1" />
          <g
             id="g5475-9-8"
             transform="translate(-7.0045567,38.392111)">
            <text
               xml:space="preserve"
               style="font-style:normal;font-variant:normal;font-weight:normal;font-stretch:normal;font-size:8.28542328px;line-height:1.25;font-family:Roboto;-inkscape-font-specification:Roboto;letter-spacing:0px;word-spacing:0px;fill:#000000;fill-opacity:1;stroke:none;stroke-width:0.25891945"
               x="132.09343"
               y="123.29738"
               id="text5396-9-3"><tspan
                 sodipodi:role="line"
                 id="tspan5394-4-6"
                 x="132.09343"
                 y="123.29738"
                 style="font-size:8.28542328px;stroke-width:0.25891945">Taak 1: Matrixvermenigvuldiging</tspan></text>
          </g>
          <text
             id="text5508-5-9"
             y="161.79791"
             x="318.80432"
             style="font-style:normal;font-variant:normal;font-weight:normal;font-stretch:normal;font-size:16.93333244px;line-height:1.25;font-family:Roboto;-inkscape-font-specification:Roboto;text-align:end;letter-spacing:0px;word-spacing:0px;text-anchor:end;fill:#000000;fill-opacity:1;stroke:none;stroke-width:0.26458332"
             xml:space="preserve"><tspan
               style="font-size:4.23333359px;text-align:end;text-anchor:end;stroke-width:0.26458332"
               y="161.79791"
               x="318.80432"
               id="tspan5506-1-3"
               sodipodi:role="line">examples failed</tspan></text>
        </g>
      </g>
      <text
         id="text5242-3"
         y="223.97499"
         x="105.83333"
         style="font-style:normal;font-variant:normal;font-weight:normal;font-stretch:normal;font-size:12.69999981px;line-height:1.25;font-family:Roboto;-inkscape-font-specification:Roboto;letter-spacing:0px;word-spacing:0px;fill:#000000;fill-opacity:1;stroke:none;stroke-width:0.26458332"
         xml:space="preserve"><tspan
           style="font-style:normal;font-variant:normal;font-weight:normal;font-stretch:normal;font-size:12.69999981px;font-family:'DejaVu Sans';-inkscape-font-specification:'DejaVu Sans';stroke-width:0.26458332"
           y="223.97499"
           x="105.83333"
           id="tspan5240-6"
           sodipodi:role="line">Compilation Output</tspan></text>
      <g
         transform="translate(7.937463,11.641652)"
         id="g934-3">
        <rect
           style="opacity:1;fill:#ffffff;fill-opacity:1;fill-rule:nonzero;stroke:none;stroke-width:0.12247831;stroke-linecap:butt;stroke-linejoin:miter;stroke-miterlimit:4;stroke-dasharray:none;stroke-opacity:1"
           id="rect1596-6"
           width="79.375"
           height="11.90625"
           x="164.04169"
           y="179.26041" />
        <text
           id="text5392-0-1-7"
           y="187.5275"
           x="203.79131"
           style="font-style:normal;font-variant:normal;font-weight:normal;font-stretch:normal;font-size:8.27593136px;line-height:1.25;font-family:Roboto;-inkscape-font-specification:Roboto;text-align:center;text-decoration: underline;text-decoration-line: underline;letter-spacing:0px;word-spacing:0px;text-anchor:middle;fill:#000000;fill-opacity:1;stroke:none;stroke-width:0.12931143"
           xml:space="preserve"><tspan
             style="font-style:normal;font-variant:normal;font-weight:normal;font-stretch:normal;font-size:6.20694923px;font-family:'DejaVu Sans';-inkscape-font-specification:'DejaVu Sans';text-align:center;text-anchor:middle;stroke-width:0.12931143"
             y="187.5275"
             x="203.79131"
             id="tspan5390-9-9-5"
             sodipodi:role="line">Download source</tspan></text>
      </g>
    </g>
    <g
       id="g926">
      <rect
         y="85.322525"
         x="-8.8817842e-16"
         height="9.260417"
         width="423.33328"
         id="rect4671"
         style="opacity:1;fill:#7fa7c7;fill-opacity:1;fill-rule:nonzero;stroke:none;stroke-width:0.25676632;stroke-linecap:butt;stroke-linejoin:miter;stroke-miterlimit:4;stroke-dasharray:none;stroke-opacity:1" />
      <text
         id="text935"
         y="90.936775"
         x="293.04221"
         style="font-style:normal;font-variant:normal;font-weight:normal;font-stretch:normal;font-size:3.52777791px;line-height:1.25;font-family:Roboto;-inkscape-font-specification:Roboto;text-align:end;letter-spacing:0px;word-spacing:0px;text-anchor:end;fill:#ffffff;fill-opacity:1;stroke:none;stroke-width:0.26458332"
         xml:space="preserve"><tspan
           id="tspan949"
           style="font-style:normal;font-variant:normal;font-weight:normal;font-stretch:normal;font-size:3.52777791px;font-family:'DejaVu Sans';-inkscape-font-specification:'DejaVu Sans';text-align:end;text-anchor:end;fill:#ffffff;fill-opacity:1;stroke-width:0.26458332"
           y="90.936775"
           x="293.04221"
           sodipodi:role="line">logged in as</tspan></text>
      <text
         id="text935-3"
         y="90.93676"
         x="92.604164"
         style="font-style:normal;font-variant:normal;font-weight:normal;font-stretch:normal;font-size:3.52777791px;line-height:1.25;font-family:Roboto;-inkscape-font-specification:Roboto;text-align:start;letter-spacing:0px;word-spacing:0px;text-anchor:start;fill:#ffffff;fill-opacity:1;stroke:none;stroke-width:0.26458332"
         xml:space="preserve"><tspan
           id="tspan949-6"
           style="font-style:normal;font-variant:normal;font-weight:normal;font-stretch:normal;font-size:3.52777791px;font-family:'DejaVu Sans';-inkscape-font-specification:'DejaVu Sans';text-align:start;text-anchor:start;fill:#ffffff;fill-opacity:1;stroke-width:0.26458332"
           y="90.93676"
           x="92.604164"
           sodipodi:role="line">/</tspan></text>
      <text
         id="text935-3-7-5"
         y="90.93676"
         x="94.321892"
         style="font-style:normal;font-variant:normal;font-weight:normal;font-stretch:normal;font-size:3.52777791px;line-height:1.25;font-family:Roboto;-inkscape-font-specification:Roboto;text-align:start;text-decoration: underline;text-decoration-line: underline;letter-spacing:0px;word-spacing:0px;text-anchor:start;fill:#ffffff;fill-opacity:1;stroke:none;stroke-width:0.26458332"
         xml:space="preserve"><tspan
           id="tspan949-6-5-62"
           style="font-style:normal;font-variant:normal;font-weight:normal;font-stretch:normal;font-size:3.52777791px;font-family:'DejaVu Sans';-inkscape-font-specification:'DejaVu Sans';text-align:start;text-anchor:start;fill:#ffffff;fill-opacity:1;stroke-width:0.26458332"
           y="90.93676"
           x="94.321892"
           sodipodi:role="line">courses</tspan></text>
      <text
         id="text935-3-3"
         y="90.986717"
         x="108.31966"
         style="font-style:normal;font-variant:normal;font-weight:normal;font-stretch:normal;font-size:3.52777791px;line-height:1.25;font-family:Roboto;-inkscape-font-specification:Roboto;text-align:start;letter-spacing:0px;word-spacing:0px;text-anchor:start;fill:#ffffff;fill-opacity:1;stroke:none;stroke-width:0.26458332"
         xml:space="preserve"><tspan
           id="tspan949-6-6"
           style="font-style:normal;font-variant:normal;font-weight:normal;font-stretch:normal;font-size:3.52777791px;font-family:'DejaVu Sans';-inkscape-font-specification:'DejaVu Sans';text-align:start;text-anchor:start;fill:#ffffff;fill-opacity:1;stroke-width:0.26458332"
           y="90.986717"
           x="108.31966"
           sodipodi:role="line">/</tspan></text>
      <text
         id="text935-3-7-3"
         y="90.827385"
         x="109.84273"
         style="font-style:normal;font-variant:normal;font-weight:normal;font-stretch:normal;font-size:3.52777791px;line-height:1.25;font-family:Roboto;-inkscape-font-specification:Roboto;text-align:start;text-decoration: underline;text-decoration-line: underline;letter-spacing:0px;word-spacing:0px;text-anchor:start;fill:#ffffff;fill-opacity:1;stroke:none;stroke-width:0.26458332"
         xml:space="preserve"><tspan
           id="tspan949-6-5-6"
           style="font-style:normal;font-variant:normal;font-weight:normal;font-stretch:normal;font-size:3.52777791px;font-family:'DejaVu Sans';-inkscape-font-specification:'DejaVu Sans';text-align:start;text-anchor:start;fill:#ffffff;fill-opacity:1;stroke-width:0.26458332"
           y="90.827385"
           x="109.84273"
           sodipodi:role="line">Computer Graphics</tspan></text>
      <text
         id="text935-3-3-7"
         y="90.976387"
         x="144.46286"
         style="font-style:normal;font-variant:normal;font-weight:normal;font-stretch:normal;font-size:3.52777791px;line-height:1.25;font-family:Roboto;-inkscape-font-specification:Roboto;text-align:start;letter-spacing:0px;word-spacing:0px;text-anchor:start;fill:#ffffff;fill-opacity:1;stroke:none;stroke-width:0.26458332"
         xml:space="preserve"><tspan
           id="tspan949-6-6-5"
           style="font-style:normal;font-variant:normal;font-weight:normal;font-stretch:normal;font-size:3.52777791px;font-family:'DejaVu Sans';-inkscape-font-specification:'DejaVu Sans';text-align:start;text-anchor:start;fill:#ffffff;fill-opacity:1;stroke-width:0.26458332"
           y="90.976387"
           x="144.46286"
           sodipodi:role="line">/</tspan></text>
      <text
         id="text935-3-7-3-9"
         y="90.976387"
         x="146.18402"
         style="font-style:normal;font-variant:normal;font-weight:normal;font-stretch:normal;font-size:3.52777791px;line-height:1.25;font-family:Roboto;-inkscape-font-specification:Roboto;text-align:start;text-decoration: underline;text-decoration-line: underline;letter-spacing:0px;word-spacing:0px;text-anchor:start;fill:#ffffff;fill-opacity:1;stroke:none;stroke-width:0.26458332"
         xml:space="preserve"><tspan
           id="tspan949-6-5-6-1"
           style="font-style:normal;font-variant:normal;font-weight:normal;font-stretch:normal;font-size:3.52777791px;font-family:'DejaVu Sans';-inkscape-font-specification:'DejaVu Sans';text-align:start;text-anchor:start;fill:#ffffff;fill-opacity:1;stroke-width:0.26458332"
           y="90.976387"
           x="146.18402"
           sodipodi:role="line">assignments</tspan></text>
      <text
         id="text935-3-3-7-2"
         y="90.976387"
         x="169.08563"
         style="font-style:normal;font-variant:normal;font-weight:normal;font-stretch:normal;font-size:3.52777791px;line-height:1.25;font-family:Roboto;-inkscape-font-specification:Roboto;text-align:start;letter-spacing:0px;word-spacing:0px;text-anchor:start;fill:#ffffff;fill-opacity:1;stroke:none;stroke-width:0.26458332"
         xml:space="preserve"><tspan
           id="tspan949-6-6-5-7"
           style="font-style:normal;font-variant:normal;font-weight:normal;font-stretch:normal;font-size:3.52777791px;font-family:'DejaVu Sans';-inkscape-font-specification:'DejaVu Sans';text-align:start;text-anchor:start;fill:#ffffff;fill-opacity:1;stroke-width:0.26458332"
           y="90.976387"
           x="169.08563"
           sodipodi:role="line">/</tspan></text>
      <text
         id="text935-3-7-3-9-0"
         y="90.976387"
         x="170.80679"
         style="font-style:normal;font-variant:normal;font-weight:normal;font-stretch:normal;font-size:3.52777791px;line-height:1.25;font-family:Roboto;-inkscape-font-specification:Roboto;text-align:start;text-decoration: underline;text-decoration-line: underline;letter-spacing:0px;word-spacing:0px;text-anchor:start;fill:#ffffff;fill-opacity:1;stroke:none;stroke-width:0.26458332"
         xml:space="preserve"><tspan
           id="tspan949-6-5-6-1-9"
           style="font-style:normal;font-variant:normal;font-weight:normal;font-stretch:normal;font-size:3.52777791px;font-family:'DejaVu Sans';-inkscape-font-specification:'DejaVu Sans';text-align:start;text-anchor:start;fill:#ffffff;fill-opacity:1;stroke-width:0.26458332"
           y="90.976387"
           x="170.80679"
           sodipodi:role="line">Taak 1: Matrixvermenigvuldiging</tspan></text>
      <text
         id="text935-3-3-7-3"
         y="91.08577"
         x="228.73334"
         style="font-style:normal;font-variant:normal;font-weight:normal;font-stretch:normal;font-size:3.52777791px;line-height:1.25;font-family:Roboto;-inkscape-font-specification:Roboto;text-align:start;letter-spacing:0px;word-spacing:0px;text-anchor:start;fill:#ffffff;fill-opacity:1;stroke:none;stroke-width:0.26458332"
         xml:space="preserve"><tspan
           id="tspan949-6-6-5-6"
           style="font-style:normal;font-variant:normal;font-weight:normal;font-stretch:normal;font-size:3.52777791px;font-family:'DejaVu Sans';-inkscape-font-specification:'DejaVu Sans';text-align:start;text-anchor:start;fill:#ffffff;fill-opacity:1;stroke-width:0.26458332"
           y="91.08577"
           x="228.73334"
           sodipodi:role="line">/</tspan></text>
      <text
         id="text935-3-7-3-9-0-3"
         y="90.936768"
         x="230.4614"
         style="font-style:normal;font-variant:normal;font-weight:normal;font-stretch:normal;font-size:3.52777791px;line-height:1.25;font-family:Roboto;-inkscape-font-specification:Roboto;text-align:start;text-decoration: underline;text-decoration-line: underline;letter-spacing:0px;word-spacing:0px;text-anchor:start;fill:#ffffff;fill-opacity:1;stroke:none;stroke-width:0.26458332"
         xml:space="preserve"><tspan
           id="tspan949-6-5-6-1-9-6"
           style="font-style:normal;font-variant:normal;font-weight:normal;font-stretch:normal;font-size:3.52777791px;font-family:'DejaVu Sans';-inkscape-font-specification:'DejaVu Sans';text-align:start;text-anchor:start;fill:#ffffff;fill-opacity:1;stroke-width:0.26458332"
           y="90.936768"
           x="230.4614"
           sodipodi:role="line">submissions</tspan></text>
      <text
         id="text935-3-3-7-3-7"
         y="90.986725"
         x="252.44489"
         style="font-style:normal;font-variant:normal;font-weight:normal;font-stretch:normal;font-size:3.52777791px;line-height:1.25;font-family:Roboto;-inkscape-font-specification:Roboto;text-align:start;letter-spacing:0px;word-spacing:0px;text-anchor:start;fill:#ffffff;fill-opacity:1;stroke:none;stroke-width:0.26458332"
         xml:space="preserve"><tspan
           id="tspan949-6-6-5-6-5"
           style="font-style:normal;font-variant:normal;font-weight:normal;font-stretch:normal;font-size:3.52777791px;font-family:'DejaVu Sans';-inkscape-font-specification:'DejaVu Sans';text-align:start;text-anchor:start;fill:#ffffff;fill-opacity:1;stroke-width:0.26458332"
           y="90.986725"
           x="252.44489"
           sodipodi:role="line">/</tspan></text>
      <text
         id="text935-3-7-3-9-0-3-6"
         y="90.93676"
         x="253.44225"
         style="font-style:normal;font-variant:normal;font-weight:normal;font-stretch:normal;font-size:3.52777791px;line-height:1.25;font-family:Roboto;-inkscape-font-specification:Roboto;text-align:start;text-decoration: underline;text-decoration-line: underline;letter-spacing:0px;word-spacing:0px;text-anchor:start;fill:#ffffff;fill-opacity:1;stroke:none;stroke-width:0.26458332"
         xml:space="preserve"><tspan
           id="tspan949-6-5-6-1-9-6-2"
           style="font-style:normal;font-variant:normal;font-weight:normal;font-stretch:normal;font-size:3.52777791px;font-family:'DejaVu Sans';-inkscape-font-specification:'DejaVu Sans';text-align:start;text-anchor:start;fill:#ffffff;fill-opacity:1;stroke-width:0.26458332"
           y="90.93676"
           x="253.44225"
           sodipodi:role="line">13</tspan></text>
    </g>
    <text
       xml:space="preserve"
       style="font-style:normal;font-variant:normal;font-weight:normal;font-stretch:normal;font-size:16.93333244px;line-height:1.25;font-family:Roboto;-inkscape-font-specification:Roboto;text-decoration: underline;text-decoration-line: underline;letter-spacing:0px;word-spacing:0px;fill:#ffffff;fill-opacity:1;stroke:none;stroke-width:0.26458332"
       x="294.35068"
       y="90.928162"
       id="text957"><tspan
         sodipodi:role="line"
         id="tspan955"
         x="294.35068"
         y="90.928162"
         style="font-size:3.52777791px;fill:#ffffff;fill-opacity:1;stroke-width:0.26458332">Wilfried Van Groen</tspan></text>
    <text
       xml:space="preserve"
       style="font-style:normal;font-variant:normal;font-weight:normal;font-stretch:normal;font-size:16.93333244px;line-height:1.25;font-family:Roboto;-inkscape-font-specification:Roboto;letter-spacing:0px;word-spacing:0px;fill:#000000;fill-opacity:1;stroke:none;stroke-width:0.26458332"
       x="99.747917"
       y="215.66544"
       id="text958"><tspan
         sodipodi:role="line"
         x="99.747917"
         y="231.23598"
         style="font-style:normal;font-variant:normal;font-weight:normal;font-stretch:normal;font-size:4.23333359px;line-height:125%;font-family:'Liberation Sans';-inkscape-font-specification:'Liberation Sans';stroke-width:0.26458332"
         id="tspan1524" /></text>
    <g
       id="g2167"
       transform="translate(0,22.489583)">
      <rect
         y="212.06874"
         x="99.21875"
         height="52.916668"
         width="224.89584"
         id="rect947"
         style="opacity:1;fill:#000000;fill-opacity:1;fill-rule:nonzero;stroke:none;stroke-width:0.30631441;stroke-linecap:butt;stroke-linejoin:miter;stroke-miterlimit:4;stroke-dasharray:none;stroke-opacity:1" />
      <g
         id="g2316"
         transform="translate(5.2916663,-6.1898386e-6)">
        <rect
           style="opacity:1;fill:#dcdcdc;fill-opacity:1;fill-rule:nonzero;stroke:none;stroke-width:0.19585018;stroke-linecap:butt;stroke-linejoin:miter;stroke-miterlimit:4;stroke-dasharray:none;stroke-opacity:1"
           id="rect949"
           width="2.6458333"
           height="51.858334"
           x="315.64792"
           y="212.59792" />
        <rect
           style="opacity:1;fill:#8e8e8e;fill-opacity:1;fill-rule:nonzero;stroke:none;stroke-width:0.27281651;stroke-linecap:butt;stroke-linejoin:miter;stroke-miterlimit:4;stroke-dasharray:none;stroke-opacity:1"
           id="rect951"
           width="2.6458333"
           height="7.9375"
           x="315.64792"
           y="222.91666" />
      </g>
      <rect
         y="212.59792"
         x="99.747917"
         height="51.858334"
         width="221.19167"
         id="rect953"
         style="opacity:1;fill:#ffffff;fill-opacity:1;fill-rule:nonzero;stroke:none;stroke-width:0.62361711;stroke-linecap:butt;stroke-linejoin:miter;stroke-miterlimit:4;stroke-dasharray:none;stroke-opacity:1" />
      <rect
         transform="translate(6.6145834)"
         clip-path="url(#clipPath2094)"
         y="212.5979"
         x="99.747917"
         height="51.858322"
         width="215.89999"
         id="rect2092"
         style="opacity:1;fill:#000000;fill-opacity:1;fill-rule:nonzero;stroke:none;stroke-width:0.26499999;stroke-linecap:butt;stroke-linejoin:miter;stroke-miterlimit:4;stroke-dasharray:none;stroke-opacity:1" />
    </g>
    <text
       xml:space="preserve"
       style="font-style:normal;font-variant:normal;font-weight:normal;font-stretch:normal;font-size:12.69999981px;line-height:1.25;font-family:Roboto;-inkscape-font-specification:Roboto;letter-spacing:0px;word-spacing:0px;fill:#000000;fill-opacity:1;stroke:none;stroke-width:0.26458332"
       x="105.83333"
       y="308.64166"
       id="text5242-0-7"><tspan
         sodipodi:role="line"
         id="tspan5240-3-9"
         x="105.83333"
         y="308.64166"
         style="font-style:normal;font-variant:normal;font-weight:normal;font-stretch:normal;font-size:12.69999981px;font-family:'DejaVu Sans';-inkscape-font-specification:'DejaVu Sans';stroke-width:0.26458332">Examples (1/2 correct)</tspan></text>
    <g
       id="g1185"
       transform="translate(0,15.875)">
      <g
         transform="translate(9.9999758e-7,13.227048)"
         id="g998">
        <rect
           style="opacity:1;fill:#000000;fill-opacity:1;fill-rule:nonzero;stroke:none;stroke-width:0.19180323;stroke-linecap:butt;stroke-linejoin:miter;stroke-miterlimit:4;stroke-dasharray:none;stroke-opacity:1"
           id="rect1360"
           width="109.80209"
           height="16.933334"
           x="99.21875"
           y="308.64166" />
        <text
           xml:space="preserve"
           style="font-style:normal;font-variant:normal;font-weight:normal;font-stretch:normal;font-size:4.23333311px;line-height:1.25;font-family:Roboto;-inkscape-font-specification:Roboto;letter-spacing:0px;word-spacing:0px;fill:#000000;fill-opacity:1;stroke:none;stroke-width:0.26458332"
           x="151.56905"
           y="306.47409"
           id="text1364"><tspan
             sodipodi:role="line"
             id="tspan1362"
             x="151.56905"
             y="306.47409"
             style="stroke-width:0.26458332">inputs</tspan></text>
        <rect
           style="opacity:1;fill:#ffffff;fill-opacity:1;fill-rule:nonzero;stroke:none;stroke-width:0.23098166;stroke-linecap:butt;stroke-linejoin:miter;stroke-miterlimit:4;stroke-dasharray:none;stroke-opacity:1"
           id="rect2440"
           width="108.74375"
           height="15.874989"
           x="99.747917"
           y="309.17084" />
        <text
           id="text1397-3-3"
           y="318.43124"
           x="106.3625"
           style="font-style:normal;font-variant:normal;font-weight:normal;font-stretch:normal;font-size:4.23333311px;line-height:1.25;font-family:Roboto;-inkscape-font-specification:Roboto;letter-spacing:0px;word-spacing:0px;fill:#000000;fill-opacity:1;stroke:none;stroke-width:0.26458332"
           xml:space="preserve"><tspan
             style="stroke-width:0.26458332"
             y="318.43124"
             x="106.3625"
             id="tspan1395-7-6"
             sodipodi:role="line">[1, 2, 3, 4]</tspan></text>
      </g>
      <g
         id="g998-7"
         transform="translate(115.09376,13.227048)">
        <rect
           style="opacity:1;fill:#000000;fill-opacity:1;fill-rule:nonzero;stroke:none;stroke-width:0.19180323;stroke-linecap:butt;stroke-linejoin:miter;stroke-miterlimit:4;stroke-dasharray:none;stroke-opacity:1"
           id="rect1360-5"
           width="109.80209"
           height="16.933334"
           x="99.21875"
           y="308.64166" />
        <text
           xml:space="preserve"
           style="font-style:normal;font-variant:normal;font-weight:normal;font-stretch:normal;font-size:4.23333311px;line-height:1.25;font-family:Roboto;-inkscape-font-specification:Roboto;text-align:center;letter-spacing:0px;word-spacing:0px;text-anchor:middle;fill:#000000;fill-opacity:1;stroke:none;stroke-width:0.26458332"
           x="157.13564"
           y="306.47409"
           id="text1364-3"><tspan
             sodipodi:role="line"
             id="tspan1362-5"
             x="157.13564"
             y="306.47409"
             style="text-align:center;text-anchor:middle;stroke-width:0.26458332">expected output</tspan></text>
        <rect
           style="opacity:1;fill:#ffffff;fill-opacity:1;fill-rule:nonzero;stroke:none;stroke-width:0.23098166;stroke-linecap:butt;stroke-linejoin:miter;stroke-miterlimit:4;stroke-dasharray:none;stroke-opacity:1"
           id="rect2440-6"
           width="108.74375"
           height="15.874989"
           x="99.747917"
           y="309.17084" />
        <text
           id="text1397-3-3-2"
           y="318.43124"
           x="106.3625"
           style="font-style:normal;font-variant:normal;font-weight:normal;font-stretch:normal;font-size:4.23333311px;line-height:1.25;font-family:Roboto;-inkscape-font-specification:Roboto;letter-spacing:0px;word-spacing:0px;fill:#000000;fill-opacity:1;stroke:none;stroke-width:0.26458332"
           xml:space="preserve"><tspan
             style="stroke-width:0.26458332"
             y="318.43124"
             x="106.3625"
             id="tspan1395-7-6-9"
             sodipodi:role="line">[1, 2, 3, 4]</tspan></text>
      </g>
      <g
         transform="translate(9.9999758e-7,38.097898)"
         id="g1055">
        <rect
           y="308.64166"
           x="99.21875"
           height="16.933334"
           width="109.80209"
           id="rect1043"
           style="opacity:1;fill:#000000;fill-opacity:1;fill-rule:nonzero;stroke:none;stroke-width:0.19180323;stroke-linecap:butt;stroke-linejoin:miter;stroke-miterlimit:4;stroke-dasharray:none;stroke-opacity:1" />
        <text
           id="text1047"
           y="306.47409"
           x="157.13564"
           style="font-style:normal;font-variant:normal;font-weight:normal;font-stretch:normal;font-size:4.23333311px;line-height:1.25;font-family:Roboto;-inkscape-font-specification:Roboto;letter-spacing:0px;word-spacing:0px;fill:#000000;fill-opacity:1;stroke:none;stroke-width:0.26458332"
           xml:space="preserve"><tspan
             style="text-align:center;text-anchor:middle;stroke-width:0.26458332"
             y="306.47409"
             x="157.13564"
             id="tspan1045"
             sodipodi:role="line">stderr</tspan></text>
        <rect
           y="309.17084"
           x="99.747917"
           height="15.874989"
           width="108.74375"
           id="rect1049"
           style="opacity:1;fill:#ffffff;fill-opacity:1;fill-rule:nonzero;stroke:none;stroke-width:0.23098166;stroke-linecap:butt;stroke-linejoin:miter;stroke-miterlimit:4;stroke-dasharray:none;stroke-opacity:1" />
        <text
           xml:space="preserve"
           style="font-style:normal;font-variant:normal;font-weight:normal;font-stretch:normal;font-size:4.23333311px;line-height:1.25;font-family:Roboto;-inkscape-font-specification:Roboto;letter-spacing:0px;word-spacing:0px;fill:#000000;fill-opacity:1;stroke:none;stroke-width:0.26458332"
           x="106.3625"
           y="318.43124"
           id="text1053"><tspan
             sodipodi:role="line"
             id="tspan1051"
             x="106.3625"
             y="322.32388"
             style="stroke-width:0.26458332" /></text>
      </g>
      <g
         transform="translate(115.09376,38.097898)"
         id="g1069">
        <rect
           y="308.64166"
           x="99.21875"
           height="16.933334"
           width="109.80209"
           id="rect1057"
           style="opacity:1;fill:#000000;fill-opacity:1;fill-rule:nonzero;stroke:none;stroke-width:0.19180323;stroke-linecap:butt;stroke-linejoin:miter;stroke-miterlimit:4;stroke-dasharray:none;stroke-opacity:1" />
        <text
           id="text1061"
           y="306.47409"
           x="157.13564"
           style="font-style:normal;font-variant:normal;font-weight:normal;font-stretch:normal;font-size:4.23333311px;line-height:1.25;font-family:Roboto;-inkscape-font-specification:Roboto;text-align:center;letter-spacing:0px;word-spacing:0px;text-anchor:middle;fill:#000000;fill-opacity:1;stroke:none;stroke-width:0.26458332"
           xml:space="preserve"><tspan
             style="text-align:center;text-anchor:middle;stroke-width:0.26458332"
             y="306.47409"
             x="157.13564"
             id="tspan1059"
             sodipodi:role="line">output</tspan></text>
        <rect
           y="309.17084"
           x="99.747917"
           height="15.874989"
           width="108.74375"
           id="rect1063"
           style="opacity:1;fill:#ffffff;fill-opacity:1;fill-rule:nonzero;stroke:none;stroke-width:0.23098166;stroke-linecap:butt;stroke-linejoin:miter;stroke-miterlimit:4;stroke-dasharray:none;stroke-opacity:1" />
        <text
           xml:space="preserve"
           style="font-style:normal;font-variant:normal;font-weight:normal;font-stretch:normal;font-size:4.23333311px;line-height:1.25;font-family:Roboto;-inkscape-font-specification:Roboto;letter-spacing:0px;word-spacing:0px;fill:#000000;fill-opacity:1;stroke:none;stroke-width:0.26458332"
           x="106.3625"
           y="318.43124"
           id="text1067"><tspan
             sodipodi:role="line"
             id="tspan1065"
             x="106.3625"
             y="318.43124"
             style="stroke-width:0.26458332">[1, 2, 3, 4]</tspan></text>
      </g>
      <text
         xml:space="preserve"
         style="font-style:normal;font-variant:normal;font-weight:normal;font-stretch:normal;font-size:8.46666718px;line-height:1.25;font-family:Roboto;-inkscape-font-specification:Roboto;text-align:center;letter-spacing:0px;word-spacing:0px;text-anchor:middle;fill:#000000;fill-opacity:1;stroke:none;stroke-width:0.26458332"
         x="211.66666"
         y="311.28537"
         id="text1364-1"><tspan
           sodipodi:role="line"
           id="tspan1362-2"
           x="211.66666"
           y="311.28537"
           style="font-size:8.46666718px;text-align:center;text-anchor:middle;stroke-width:0.26458332">test 1</tspan></text>
    </g>
    <g
       id="g1354"
       transform="translate(-7.0007664e-6,86.78334)">
      <g
         id="g1306"
         transform="translate(9.9999758e-7,7.9353817)">
        <rect
           y="308.64166"
           x="99.21875"
           height="16.933334"
           width="109.80209"
           id="rect1294"
           style="opacity:1;fill:#000000;fill-opacity:1;fill-rule:nonzero;stroke:none;stroke-width:0.19180323;stroke-linecap:butt;stroke-linejoin:miter;stroke-miterlimit:4;stroke-dasharray:none;stroke-opacity:1" />
        <text
           id="text1298"
           y="306.47409"
           x="151.56905"
           style="font-style:normal;font-variant:normal;font-weight:normal;font-stretch:normal;font-size:4.23333311px;line-height:1.25;font-family:Roboto;-inkscape-font-specification:Roboto;letter-spacing:0px;word-spacing:0px;fill:#000000;fill-opacity:1;stroke:none;stroke-width:0.26458332"
           xml:space="preserve"><tspan
             style="stroke-width:0.26458332"
             y="306.47409"
             x="151.56905"
             id="tspan1296"
             sodipodi:role="line">inputs</tspan></text>
        <rect
           y="309.17084"
           x="99.747917"
           height="15.874989"
           width="108.74375"
           id="rect1300"
           style="opacity:1;fill:#ffffff;fill-opacity:1;fill-rule:nonzero;stroke:none;stroke-width:0.23098166;stroke-linecap:butt;stroke-linejoin:miter;stroke-miterlimit:4;stroke-dasharray:none;stroke-opacity:1" />
        <text
           xml:space="preserve"
           style="font-style:normal;font-variant:normal;font-weight:normal;font-stretch:normal;font-size:4.23333311px;line-height:1.25;font-family:Roboto;-inkscape-font-specification:Roboto;letter-spacing:0px;word-spacing:0px;fill:#000000;fill-opacity:1;stroke:none;stroke-width:0.26458332"
           x="106.3625"
           y="318.43124"
           id="text1304"><tspan
             sodipodi:role="line"
             id="tspan1302"
             x="106.3625"
             y="318.43124"
             style="stroke-width:0.26458332">[16, 15, 14, 13, 12, 11, 10, 9, 8, 7, 6, 5, 4, 3, 2, 1]</tspan></text>
      </g>
      <g
         transform="translate(115.09376,7.9353817)"
         id="g1320">
        <rect
           y="308.64166"
           x="99.21875"
           height="16.933334"
           width="109.80209"
           id="rect1308"
           style="opacity:1;fill:#000000;fill-opacity:1;fill-rule:nonzero;stroke:none;stroke-width:0.19180323;stroke-linecap:butt;stroke-linejoin:miter;stroke-miterlimit:4;stroke-dasharray:none;stroke-opacity:1" />
        <text
           id="text1312"
           y="306.47409"
           x="157.13564"
           style="font-style:normal;font-variant:normal;font-weight:normal;font-stretch:normal;font-size:4.23333311px;line-height:1.25;font-family:Roboto;-inkscape-font-specification:Roboto;text-align:center;letter-spacing:0px;word-spacing:0px;text-anchor:middle;fill:#000000;fill-opacity:1;stroke:none;stroke-width:0.26458332"
           xml:space="preserve"><tspan
             style="text-align:center;text-anchor:middle;stroke-width:0.26458332"
             y="306.47409"
             x="157.13564"
             id="tspan1310"
             sodipodi:role="line">expected output</tspan></text>
        <rect
           y="309.17084"
           x="99.747917"
           height="15.874989"
           width="108.74375"
           id="rect1314"
           style="opacity:1;fill:#ffffff;fill-opacity:1;fill-rule:nonzero;stroke:none;stroke-width:0.23098166;stroke-linecap:butt;stroke-linejoin:miter;stroke-miterlimit:4;stroke-dasharray:none;stroke-opacity:1" />
        <text
           xml:space="preserve"
           style="font-style:normal;font-variant:normal;font-weight:normal;font-stretch:normal;font-size:4.23333311px;line-height:1.25;font-family:Roboto;-inkscape-font-specification:Roboto;letter-spacing:0px;word-spacing:0px;fill:#000000;fill-opacity:1;stroke:none;stroke-width:0.26458332"
           x="106.3625"
           y="318.43124"
           id="text1318"><tspan
             sodipodi:role="line"
             id="tspan1316"
             x="106.3625"
             y="318.43124"
             style="stroke-width:0.26458332">[16, 15, 14, 13, 12, 11, 10, 9, 8, 7, 6, 5, 4, 3, 2, 1]</tspan></text>
      </g>
      <g
         id="g1334"
         transform="translate(9.9999758e-7,32.806232)">
        <rect
           style="opacity:1;fill:#000000;fill-opacity:1;fill-rule:nonzero;stroke:none;stroke-width:0.19180323;stroke-linecap:butt;stroke-linejoin:miter;stroke-miterlimit:4;stroke-dasharray:none;stroke-opacity:1"
           id="rect1322"
           width="109.80209"
           height="16.933334"
           x="99.21875"
           y="308.64166" />
        <text
           xml:space="preserve"
           style="font-style:normal;font-variant:normal;font-weight:normal;font-stretch:normal;font-size:4.23333311px;line-height:1.25;font-family:Roboto;-inkscape-font-specification:Roboto;letter-spacing:0px;word-spacing:0px;fill:#000000;fill-opacity:1;stroke:none;stroke-width:0.26458332"
           x="157.13564"
           y="306.47409"
           id="text1326"><tspan
             sodipodi:role="line"
             id="tspan1324"
             x="157.13564"
             y="306.47409"
             style="text-align:center;text-anchor:middle;stroke-width:0.26458332">stderr</tspan></text>
        <rect
           style="opacity:1;fill:#ffffff;fill-opacity:1;fill-rule:nonzero;stroke:none;stroke-width:0.23098166;stroke-linecap:butt;stroke-linejoin:miter;stroke-miterlimit:4;stroke-dasharray:none;stroke-opacity:1"
           id="rect1328"
           width="108.74375"
           height="15.874989"
           x="99.747917"
           y="309.17084" />
        <text
           id="text1332"
           y="318.43124"
           x="106.3625"
           style="font-style:normal;font-variant:normal;font-weight:normal;font-stretch:normal;font-size:4.23333311px;line-height:1.25;font-family:Roboto;-inkscape-font-specification:Roboto;letter-spacing:0px;word-spacing:0px;fill:#000000;fill-opacity:1;stroke:none;stroke-width:0.26458332"
           xml:space="preserve"><tspan
             style="stroke-width:0.26458332"
             y="322.32388"
             x="106.3625"
             id="tspan1330"
             sodipodi:role="line" /></text>
      </g>
      <g
         id="g1348"
         transform="translate(115.09376,32.806232)">
        <rect
           style="opacity:1;fill:#000000;fill-opacity:1;fill-rule:nonzero;stroke:none;stroke-width:0.19180323;stroke-linecap:butt;stroke-linejoin:miter;stroke-miterlimit:4;stroke-dasharray:none;stroke-opacity:1"
           id="rect1336"
           width="109.80209"
           height="16.933334"
           x="99.21875"
           y="308.64166" />
        <text
           xml:space="preserve"
           style="font-style:normal;font-variant:normal;font-weight:normal;font-stretch:normal;font-size:4.23333311px;line-height:1.25;font-family:Roboto;-inkscape-font-specification:Roboto;text-align:center;letter-spacing:0px;word-spacing:0px;text-anchor:middle;fill:#000000;fill-opacity:1;stroke:none;stroke-width:0.26458332"
           x="157.13564"
           y="306.47409"
           id="text1340"><tspan
             sodipodi:role="line"
             id="tspan1338"
             x="157.13564"
             y="306.47409"
             style="text-align:center;text-anchor:middle;stroke-width:0.26458332">output</tspan></text>
        <rect
           style="opacity:1;fill:#ff8c8c;fill-opacity:1;fill-rule:nonzero;stroke:none;stroke-width:0.23098166;stroke-linecap:butt;stroke-linejoin:miter;stroke-miterlimit:4;stroke-dasharray:none;stroke-opacity:1"
           id="rect1342"
           width="108.74375"
           height="15.874989"
           x="99.747917"
           y="309.17084" />
        <text
           id="text1346"
           y="318.43124"
           x="106.3625"
           style="font-style:normal;font-variant:normal;font-weight:normal;font-stretch:normal;font-size:4.23333311px;line-height:1.25;font-family:Roboto;-inkscape-font-specification:Roboto;letter-spacing:0px;word-spacing:0px;fill:#000000;fill-opacity:1;stroke:none;stroke-width:0.26458332"
           xml:space="preserve"><tspan
             style="stroke-width:0.26458332"
             y="318.43124"
             x="106.3625"
             id="tspan1344"
             sodipodi:role="line">[1, 2, 3, 4, 5, 6, 7, 8, 9, 10, 11, 12, 13, 14, 15, 16]</tspan></text>
      </g>
      <text
         id="text1352"
         y="305.99368"
         x="211.66666"
         style="font-style:normal;font-variant:normal;font-weight:normal;font-stretch:normal;font-size:8.46666718px;line-height:1.25;font-family:Roboto;-inkscape-font-specification:Roboto;text-align:center;letter-spacing:0px;word-spacing:0px;text-anchor:middle;fill:#000000;fill-opacity:1;stroke:none;stroke-width:0.26458332"
         xml:space="preserve"><tspan
           style="font-size:8.46666718px;text-align:center;text-anchor:middle;stroke-width:0.26458332"
           y="305.99368"
           x="211.66666"
           id="tspan1350"
           sodipodi:role="line">test 2</tspan></text>
    </g>
  </g>
</svg>
