<?xml version="1.0" encoding="UTF-8" standalone="no"?>
<!-- Created with Inkscape (http://www.inkscape.org/) -->

<svg
   xmlns:dc="http://purl.org/dc/elements/1.1/"
   xmlns:cc="http://creativecommons.org/ns#"
   xmlns:rdf="http://www.w3.org/1999/02/22-rdf-syntax-ns#"
   xmlns:svg="http://www.w3.org/2000/svg"
   xmlns="http://www.w3.org/2000/svg"
   xmlns:xlink="http://www.w3.org/1999/xlink"
   xmlns:sodipodi="http://sodipodi.sourceforge.net/DTD/sodipodi-0.dtd"
   xmlns:inkscape="http://www.inkscape.org/namespaces/inkscape"
   width="345mm"
   height="190mm"
   viewBox="0 0 345 189.99999"
   version="1.1"
   id="svg8"
   sodipodi:docname="containers.svg"
   inkscape:version="0.92.2 2405546, 2018-03-11">
  <defs
     id="defs2" />
  <sodipodi:namedview
     id="base"
     pagecolor="#ffffff"
     bordercolor="#666666"
     borderopacity="1.0"
     inkscape:pageopacity="0.0"
     inkscape:pageshadow="2"
     inkscape:zoom="0.7817647"
     inkscape:cx="791.85472"
     inkscape:cy="331.67852"
     inkscape:document-units="mm"
     inkscape:current-layer="layer1"
     showgrid="false"
     inkscape:snap-bbox="true"
     inkscape:bbox-paths="true"
     inkscape:bbox-nodes="true"
     inkscape:snap-bbox-edge-midpoints="true"
     inkscape:snap-bbox-midpoints="true"
     inkscape:snap-intersection-paths="true"
     inkscape:object-paths="true"
     inkscape:snap-smooth-nodes="true"
     inkscape:snap-midpoints="true"
     inkscape:snap-center="true"
     inkscape:snap-object-midpoints="true"
     inkscape:snap-page="true"
     inkscape:window-width="1920"
     inkscape:window-height="1025"
     inkscape:window-x="0"
     inkscape:window-y="27"
     inkscape:window-maximized="1"
     inkscape:measure-start="226.772,406.772"
     inkscape:measure-end="377.351,406.772"
     showguides="false"
     inkscape:guide-bbox="true"
     fit-margin-top="0"
     fit-margin-left="0"
     fit-margin-right="0"
     fit-margin-bottom="0">
    <sodipodi:guide
       position="79.999998,95"
       orientation="1,0"
       id="guide4605"
       inkscape:locked="false"
       inkscape:label=""
       inkscape:color="rgb(0,0,255)" />
    <sodipodi:guide
       position="80.000001,145"
       orientation="0,1"
       id="guide4607"
       inkscape:locked="false"
       inkscape:label=""
       inkscape:color="rgb(0,0,255)" />
    <sodipodi:guide
       position="79.999998,45"
       orientation="0,1"
       id="guide4609"
       inkscape:locked="false"
       inkscape:label=""
       inkscape:color="rgb(0,0,255)" />
    <sodipodi:guide
       position="180,95"
       orientation="1,0"
       id="guide4615"
       inkscape:locked="false"
       inkscape:label=""
       inkscape:color="rgb(0,0,255)" />
    <sodipodi:guide
       position="130,95"
       orientation="0,1"
       id="guide4617"
       inkscape:locked="false"
       inkscape:label=""
       inkscape:color="rgb(0,0,255)" />
    <sodipodi:guide
       position="130,95"
       orientation="1,0"
       id="guide4619"
       inkscape:locked="false"
       inkscape:label=""
       inkscape:color="rgb(0,0,255)" />
  </sodipodi:namedview>
  <metadata
     id="metadata5">
    <rdf:RDF>
      <cc:Work
         rdf:about="">
        <dc:format>image/svg+xml</dc:format>
        <dc:type
           rdf:resource="http://purl.org/dc/dcmitype/StillImage" />
        <dc:title></dc:title>
      </cc:Work>
    </rdf:RDF>
  </metadata>
  <g
     inkscape:label="Layer 1"
     inkscape:groupmode="layer"
     id="layer1"
     transform="translate(-1.5072839e-8,-0.09622833)">
    <g
       id="g4930"
       transform="translate(-106.49554,104.43792)">
      <g
         transform="translate(106.49554,-104.3417)"
         id="g4731">
        <g
           id="g4781">
          <rect
             y="2.6656858e-07"
             x="1.5072837e-08"
             height="90"
             width="60"
             id="rect821"
             style="opacity:1;fill:#000000;fill-opacity:1;fill-rule:nonzero;stroke:none;stroke-width:2.42966771;stroke-linecap:butt;stroke-linejoin:bevel;stroke-miterlimit:4;stroke-dasharray:none;stroke-opacity:1" />
          <rect
             style="opacity:1;fill:#dfdfdf;fill-opacity:1;fill-rule:nonzero;stroke:none;stroke-width:2.63886833;stroke-linecap:butt;stroke-linejoin:bevel;stroke-miterlimit:4;stroke-dasharray:none;stroke-opacity:1"
             id="rect4762"
             width="58"
             height="88"
             x="0.99999797"
             y="1.009792" />
        </g>
      </g>
      <path
         inkscape:connector-curvature="0"
         style="fill:none;stroke:#000000;stroke-width:1.46345639"
         d="m 136.42236,-73.600605 a 14.268699,14.268699 0 1 0 0.14634,0 z m 0.0732,0 v 28.53739 m 14.26869,-14.26869 h -28.53739 m 3.2196,-8.78074 a 19.024932,19.024932 0 0 0 22.09819,0 m 0,17.561481 a 19.024932,19.024932 0 0 0 -22.09819,0 m 9.95151,-22.683581 a 18.293204,18.293204 0 0 0 0,27.952022 m 2.19518,0 a 18.293204,18.293204 0 0 0 0,-27.952022"
         id="path5370" />
      <text
         id="text4850"
         y="-17.414593"
         x="116.00274"
         style="font-style:normal;font-variant:normal;font-weight:normal;font-stretch:normal;font-size:16.93333244px;line-height:1.25;font-family:Roboto;-inkscape-font-specification:Roboto;letter-spacing:0px;word-spacing:0px;fill:#000000;fill-opacity:1;stroke:none;stroke-width:0.26458332"
         xml:space="preserve"><tspan
           style="font-size:8.46666622px;stroke-width:0.26458332"
           y="-17.414593"
           x="116.00274"
           id="tspan4848"
           sodipodi:role="line">web server</tspan></text>
    </g>
    <g
       id="g4947"
       transform="translate(100,50.096217)">
      <use
         height="100%"
         width="100%"
         transform="translate(-106.49554,104.3417)"
         id="use4827"
         xlink:href="#g4731"
         y="0"
         x="0" />
      <g
         transform="translate(-89.999998,-4.2665685e-6)"
         id="g4727">
        <g
           transform="matrix(0.15,0,0,0.15,105,62.025)"
           id="g4615">
          <path
             inkscape:connector-curvature="0"
             id="path4513"
             d="m 0,-76 v 50 A 100,50 0 0 0 100,24 100,50 0 0 0 200,-26 V -76 H 100 Z"
             style="opacity:1;fill:#000000;fill-opacity:1;fill-rule:nonzero;stroke:none;stroke-width:142.07933044;stroke-linecap:butt;stroke-linejoin:bevel;stroke-miterlimit:4;stroke-dasharray:none;stroke-opacity:1" />
          <path
             style="opacity:1;fill:#bfbfbf;fill-opacity:1;fill-rule:nonzero;stroke:none;stroke-width:142.07933044;stroke-linecap:butt;stroke-linejoin:bevel;stroke-miterlimit:4;stroke-dasharray:none;stroke-opacity:1"
             d="m 0,-101 v 49.999998 a 100,50 0 0 0 100,50 100,50 0 0 0 100,-50 V -101 H 100 Z"
             id="use4536"
             inkscape:connector-curvature="0" />
          <path
             inkscape:connector-curvature="0"
             id="path4513-6"
             d="m 0,-126 v 50 a 100,50 0 0 0 100,50 100,50 0 0 0 100,-50 v -50 H 100 Z"
             style="opacity:1;fill:#000000;fill-opacity:1;fill-rule:nonzero;stroke:none;stroke-width:142.07933044;stroke-linecap:butt;stroke-linejoin:bevel;stroke-miterlimit:4;stroke-dasharray:none;stroke-opacity:1" />
          <use
             transform="translate(0,-50)"
             height="100%"
             width="100%"
             id="use4560"
             xlink:href="#use4536"
             y="0"
             x="0" />
          <use
             transform="translate(0,-50)"
             height="100%"
             width="100%"
             id="use4562"
             xlink:href="#path4513-6"
             y="0"
             x="0"
             style="fill:#000000;fill-opacity:1" />
          <use
             style="fill:#404040;fill-opacity:1"
             height="100%"
             width="100%"
             transform="translate(0,-50)"
             id="use4564"
             xlink:href="#use4560"
             y="0"
             x="0" />
          <g
             transform="translate(-5.1449432,63.867249)"
             id="g4603"
             style="fill:#131313;fill-opacity:1">
            <ellipse
               style="opacity:1;fill:#131313;fill-opacity:1;fill-rule:nonzero;stroke:none;stroke-width:142.07933044;stroke-linecap:butt;stroke-linejoin:bevel;stroke-miterlimit:4;stroke-dasharray:none;stroke-opacity:1"
               id="path4513-3"
               cx="105.14494"
               cy="-264.86725"
               rx="100"
               ry="50" />
            <rect
               style="opacity:1;fill:#131313;fill-opacity:1;fill-rule:nonzero;stroke:none;stroke-width:6.52089071;stroke-linecap:butt;stroke-linejoin:bevel;stroke-miterlimit:4;stroke-dasharray:none;stroke-opacity:1"
               id="rect4583"
               width="200"
               height="25"
               x="5.1449432"
               y="-264.86725" />
            <ellipse
               style="opacity:1;fill:#131313;fill-opacity:1;fill-rule:nonzero;stroke:none;stroke-width:142.07933044;stroke-linecap:butt;stroke-linejoin:bevel;stroke-miterlimit:4;stroke-dasharray:none;stroke-opacity:1"
               id="path4513-3-5"
               cx="105.14494"
               cy="-239.86725"
               rx="100"
               ry="50" />
          </g>
        </g>
      </g>
      <text
         id="text4850-7"
         y="86.91732"
         x="12.467221"
         style="font-style:normal;font-variant:normal;font-weight:normal;font-stretch:normal;font-size:16.93333244px;line-height:1.25;font-family:Roboto;-inkscape-font-specification:Roboto;letter-spacing:0px;word-spacing:0px;fill:#000000;fill-opacity:1;stroke:none;stroke-width:0.26458332"
         xml:space="preserve"><tspan
           style="font-size:8.46666622px;stroke-width:0.26458332"
           y="86.91732"
           x="12.467221"
           id="tspan4848-5"
           sodipodi:role="line">database</tspan></text>
    </g>
    <use
       x="0"
       y="0"
       xlink:href="#g4930"
       id="use4570"
       width="100%"
       height="100%"
       transform="translate(0,100.00001)" />
    <g
       id="g4590">
      <g
         transform="translate(-217.34084,-157.01111)"
         id="g4921">
        <use
           x="0"
           y="0"
           xlink:href="#use4829"
           id="use4831"
           transform="translate(91.902115,151.1995)"
           width="100%"
           height="100%" />
        <g
           id="g4713"
           transform="translate(237.34083,157.11711)">
          <path
             id="rect5941"
             d="m 195.99998,20 c -0.554,0 -0.99997,0.44605 -0.99997,1.00005 v 47.99998 c 0,0.554 0.44597,0.99997 0.99997,0.99997 h 28.00004 c 0.554,0 0.99997,-0.44597 0.99997,-0.99997 V 21.00005 c 0,-0.554 -0.44597,-1.00005 -0.99997,-1.00005 z m 5.00003,5.000023 H 219 c 0.554,0 0.99997,0.446012 0.99997,0.999974 v 2.000024 c 0,0.554 -0.44597,0.999974 -0.99997,0.999974 h -17.99999 c -0.554,0 -0.99998,-0.445974 -0.99998,-0.999974 v -2.000024 c 0,-0.553962 0.44598,-0.999974 0.99998,-0.999974 z m 0,5.999997 H 219 c 0.554,0 0.99997,0.446012 0.99997,0.999974 v 2.000024 c 0,0.554 -0.44597,0.999974 -0.99997,0.999974 h -17.99999 c -0.554,0 -0.99998,-0.445974 -0.99998,-0.999974 v -2.000024 c 0,-0.553962 0.44598,-0.999974 0.99998,-0.999974 z m 0,5.999997 H 219 c 0.554,0 0.99997,0.446012 0.99997,0.999974 v 2.000024 c 0,0.554 -0.44597,0.999974 -0.99997,0.999974 h -17.99999 c -0.554,0 -0.99998,-0.445974 -0.99998,-0.999974 v -2.000024 c 0,-0.553962 0.44598,-0.999974 0.99998,-0.999974 z"
             style="opacity:1;fill:#000000;fill-opacity:1;fill-rule:nonzero;stroke:none;stroke-width:1.7785641;stroke-linecap:butt;stroke-linejoin:bevel;stroke-miterlimit:4;stroke-dasharray:none;stroke-opacity:1"
             inkscape:connector-curvature="0" />
        </g>
        <text
           xml:space="preserve"
           style="font-style:normal;font-variant:normal;font-weight:normal;font-stretch:normal;font-size:16.93333244px;line-height:1.25;font-family:Roboto;-inkscape-font-specification:Roboto;letter-spacing:0px;word-spacing:0px;fill:#000000;fill-opacity:1;stroke:none;stroke-width:0.26458332"
           x="446.94809"
           y="245.02464"
           id="text4850-7-7"><tspan
             sodipodi:role="line"
             id="tspan4848-5-5"
             x="446.94809"
             y="245.02464"
             style="font-size:8.46666622px;text-align:center;text-anchor:middle;stroke-width:0.26458332">pipeline</tspan></text>
      </g>
      <g
         transform="translate(-40.43872,-5.8116125)"
         id="g4914">
        <use
           x="0"
           y="0"
           xlink:href="#use4827"
           id="use4829"
           transform="translate(325.43872,5.9078253)"
           width="100%"
           height="100%" />
        <g
           id="g4709"
           transform="translate(384.25877,-85.262337)">
          <g
             transform="matrix(0.78663474,0.78663474,-0.78663474,0.78663474,-20.560383,125.56038)"
             id="g6095">
            <path
               inkscape:connector-curvature="0"
               style="opacity:1;fill:#000000;fill-opacity:1;fill-rule:nonzero;stroke:none;stroke-width:7.94695377;stroke-linecap:butt;stroke-linejoin:bevel;stroke-miterlimit:4;stroke-dasharray:none;stroke-opacity:1"
               d="m 0,19 a 5,5 0 0 0 -5,5 5,5 0 0 0 3,4.580078 V 24 l 2,-2 2,2 v 4.576172 A 5,5 0 0 0 5,24 5,5 0 0 0 0,19 Z"
               id="path6009" />
            <rect
               style="opacity:1;fill:#040404;fill-opacity:1;fill-rule:nonzero;stroke:none;stroke-width:11.39267159;stroke-linecap:butt;stroke-linejoin:bevel;stroke-miterlimit:4;stroke-dasharray:none;stroke-opacity:1"
               id="rect6075"
               width="3"
               height="20"
               x="-1.5"
               y="2" />
            <path
               inkscape:connector-curvature="0"
               style="opacity:1;fill:#000000;fill-opacity:1;fill-rule:nonzero;stroke:none;stroke-width:7.94695377;stroke-linecap:butt;stroke-linejoin:bevel;stroke-miterlimit:4;stroke-dasharray:none;stroke-opacity:1"
               d="M 0,5 A 5,5 0 0 0 5,0 5,5 0 0 0 2,-4.580078 V 0 L 0,2 -2.0000003,0 V -4.576172 A 5,5 0 0 0 -5.0000003,0 5,5 0 0 0 0,5 Z"
               id="path6009-5" />
          </g>
        </g>
        <text
           xml:space="preserve"
           style="font-style:normal;font-variant:normal;font-weight:normal;font-stretch:normal;font-size:16.93333244px;line-height:1.25;font-family:Roboto;-inkscape-font-specification:Roboto;letter-spacing:0px;word-spacing:0px;fill:#000000;fill-opacity:1;stroke:none;stroke-width:0.26458332"
           x="343.09631"
           y="92.825142"
           id="text4850-7-3-6"><tspan
             sodipodi:role="line"
             id="tspan4848-5-5-2"
             x="343.09631"
             y="92.825142"
             style="font-size:8.46666622px;stroke-width:0.26458332">runner</tspan></text>
      </g>
      <path
         inkscape:connector-curvature="0"
         id="path4572"
         d="M 259.99999,44.999994 285,45.096214"
         style="fill:none;stroke:#000000;stroke-width:1;stroke-linecap:butt;stroke-linejoin:miter;stroke-miterlimit:4;stroke-dasharray:none;stroke-opacity:1"
         sodipodi:nodetypes="cc" />
    </g>
    <use
       x="0"
       y="0"
       xlink:href="#g4590"
       id="use4592"
       width="100%"
       height="100%"
       transform="translate(-5.0150729e-6,100.00001)" />
    <path
       style="fill:none;stroke:#000000;stroke-width:1;stroke-linecap:butt;stroke-linejoin:miter;stroke-miterlimit:4;stroke-dasharray:none;stroke-opacity:1"
       d="m 100,95 -20.000001,1.1e-5 v -49.90379 l -20.000002,-0.09622"
       id="path4611"
       inkscape:connector-curvature="0" />
    <path
       style="fill:none;stroke:#000000;stroke-width:1;stroke-linecap:butt;stroke-linejoin:miter;stroke-miterlimit:4;stroke-dasharray:none;stroke-opacity:1"
       d="m 100,95 -20,1.1e-5 V 145.09622 L 59.999998,145"
       id="path4613"
       inkscape:connector-curvature="0" />
    <path
       style="fill:none;stroke:#000000;stroke-width:1;stroke-linecap:butt;stroke-linejoin:miter;stroke-miterlimit:4;stroke-dasharray:none;stroke-opacity:1"
       d="m 160,95.096219 20,8e-6 v -50 l 19.99999,-1.1e-5"
       id="path4621"
       inkscape:connector-curvature="0" />
    <path
       style="fill:none;stroke:#000000;stroke-width:1;stroke-linecap:butt;stroke-linejoin:miter;stroke-miterlimit:4;stroke-dasharray:none;stroke-opacity:1"
       d="m 160,95.096217 20,8e-6 v 49.999995 h 19.99999"
       id="path4625"
       inkscape:connector-curvature="0" />
  </g>
</svg>
